<?xml version="1.0" encoding="UTF-8" standalone="no"?>
<!-- Created with Inkscape (http://www.inkscape.org/) -->

<svg
   xmlns:dc="http://purl.org/dc/elements/1.1/"
   xmlns:cc="http://creativecommons.org/ns#"
   xmlns:rdf="http://www.w3.org/1999/02/22-rdf-syntax-ns#"
   xmlns:svg="http://www.w3.org/2000/svg"
   xmlns="http://www.w3.org/2000/svg"
   xmlns:sodipodi="http://sodipodi.sourceforge.net/DTD/sodipodi-0.dtd"
   xmlns:inkscape="http://www.inkscape.org/namespaces/inkscape"
   width="189.21553mm"
   height="155.89023mm"
   viewBox="0 0 189.21553 155.89023"
   version="1.1"
   id="svg8"
   sodipodi:docname="fig_scene_bandes_spectrales.svg"
   inkscape:version="0.92.5 (2060ec1f9f, 2020-04-08)"
   inkscape:export-filename="/home/poulpe/Enseignement/fiches_focus_online/BriquesDeGeomatique/figures/fig_bandes_spectrales.png"
   inkscape:export-xdpi="120"
   inkscape:export-ydpi="120">
  <defs
     id="defs2" />
  <sodipodi:namedview
     id="base"
     pagecolor="#ffffff"
     bordercolor="#666666"
     borderopacity="1.0"
     inkscape:pageopacity="0.0"
     inkscape:pageshadow="2"
     inkscape:zoom="1.3560958"
     inkscape:cx="357.57266"
     inkscape:cy="294.59571"
     inkscape:document-units="mm"
     inkscape:current-layer="layer1"
     showgrid="false"
     inkscape:window-width="1920"
     inkscape:window-height="1011"
     inkscape:window-x="0"
     inkscape:window-y="0"
     inkscape:window-maximized="1"
     fit-margin-top="0"
     fit-margin-left="0"
     fit-margin-right="0"
     fit-margin-bottom="0"
     showguides="false" />
  <metadata
     id="metadata5">
    <rdf:RDF>
      <cc:Work
         rdf:about="">
        <dc:format>image/svg+xml</dc:format>
        <dc:type
           rdf:resource="http://purl.org/dc/dcmitype/StillImage" />
        <dc:title></dc:title>
      </cc:Work>
    </rdf:RDF>
  </metadata>
  <g
     inkscape:label="Calque 1"
     inkscape:groupmode="layer"
     id="layer1"
     transform="translate(-7.7507031,-3.2160502)">
    <g
       id="g2718">
      <rect
         y="8.996109"
         x="7.9547396"
         height="69.999786"
         width="90"
         id="rect815-6-5-7-2"
         style="opacity:1;fill:#161a16;fill-opacity:1;stroke:none;stroke-width:0.45288986;stroke-miterlimit:4;stroke-dasharray:none;stroke-dashoffset:0;stroke-opacity:1" />
      <path
         id="rect815-6-0-7"
         d="m 44.38867,8.9958965 c 0.50151,2.4337935 1.16258,5.5470945 2.09245,9.7515195 2.51157,11.356176 7.02225,18.523082 13.21106,22.559395 4.75431,-4.139334 10.04478,-9.16042 14.26248,-17.335511 3.83023,-7.424071 7.10359,-12.065312 9.71489,-14.9754035 z"
         style="opacity:1;fill:#333333;fill-opacity:1;stroke:none;stroke-width:0.45288983;stroke-miterlimit:4;stroke-dasharray:none;stroke-dashoffset:0;stroke-opacity:1"
         inkscape:connector-curvature="0" />
      <path
         id="rect815-9-2"
         d="M 83.66955,8.9959016 C 81.05825,11.905992 77.78489,16.547234 73.95466,23.971306 63.53361,44.170249 46.50414,45.213325 47.42812,60.886618 47.73995,66.176043 44.02983,72.835492 40.62873,78.995812 H 97.95462 V 8.9959016 Z"
         style="opacity:1;fill:#616161;fill-opacity:1;stroke:none;stroke-width:0.45288986;stroke-miterlimit:4;stroke-dasharray:none;stroke-dashoffset:0;stroke-opacity:1"
         inkscape:connector-curvature="0" />
      <g
         style="stroke:#eeeeee;stroke-opacity:1"
         transform="translate(-35.610192,-95.726189)"
         id="g1390-2">
        <g
           style="stroke:#eeeeee;stroke-opacity:1"
           id="g1138-6">
          <rect
             y="104.72219"
             x="43.56493"
             height="10"
             width="10"
             id="rect1070-10"
             style="opacity:1;fill:none;fill-opacity:1;stroke:#eeeeee;stroke-width:0.40806979;stroke-miterlimit:4;stroke-dasharray:none;stroke-dashoffset:0;stroke-opacity:1" />
          <rect
             y="104.72219"
             x="53.56493"
             height="10"
             width="10"
             id="rect1070-1-6"
             style="opacity:1;fill:none;fill-opacity:1;stroke:#eeeeee;stroke-width:0.40806982;stroke-miterlimit:4;stroke-dasharray:none;stroke-dashoffset:0;stroke-opacity:1" />
          <rect
             y="104.72219"
             x="63.56493"
             height="10"
             width="10"
             id="rect1070-8-1"
             style="opacity:1;fill:none;fill-opacity:1;stroke:#eeeeee;stroke-width:0.40806982;stroke-miterlimit:4;stroke-dasharray:none;stroke-dashoffset:0;stroke-opacity:1" />
          <rect
             y="104.72219"
             x="73.564926"
             height="10"
             width="10"
             id="rect1070-7-5"
             style="opacity:1;fill:none;fill-opacity:1;stroke:#eeeeee;stroke-width:0.40806982;stroke-miterlimit:4;stroke-dasharray:none;stroke-dashoffset:0;stroke-opacity:1" />
          <rect
             y="104.72219"
             x="83.564926"
             height="10"
             width="10"
             id="rect1070-9-94"
             style="opacity:1;fill:none;fill-opacity:1;stroke:#eeeeee;stroke-width:0.40806982;stroke-miterlimit:4;stroke-dasharray:none;stroke-dashoffset:0;stroke-opacity:1" />
          <rect
             y="104.72219"
             x="93.564926"
             height="10"
             width="10"
             id="rect1070-2-9"
             style="opacity:1;fill:none;fill-opacity:1;stroke:#eeeeee;stroke-width:0.40806982;stroke-miterlimit:4;stroke-dasharray:none;stroke-dashoffset:0;stroke-opacity:1" />
          <rect
             y="104.72219"
             x="103.56493"
             height="10"
             width="10"
             id="rect1070-0-09"
             style="opacity:1;fill:none;fill-opacity:1;stroke:#eeeeee;stroke-width:0.40806982;stroke-miterlimit:4;stroke-dasharray:none;stroke-dashoffset:0;stroke-opacity:1" />
          <rect
             y="104.72219"
             x="113.56493"
             height="10"
             width="10"
             id="rect1070-23-1"
             style="opacity:1;fill:none;fill-opacity:1;stroke:#eeeeee;stroke-width:0.40806982;stroke-miterlimit:4;stroke-dasharray:none;stroke-dashoffset:0;stroke-opacity:1" />
          <rect
             y="104.72219"
             x="123.56493"
             height="10"
             width="10"
             id="rect1070-75-77"
             style="opacity:1;fill:none;fill-opacity:1;stroke:#eeeeee;stroke-width:0.40806982;stroke-miterlimit:4;stroke-dasharray:none;stroke-dashoffset:0;stroke-opacity:1" />
        </g>
        <g
           style="stroke:#eeeeee;stroke-opacity:1"
           transform="translate(0,10)"
           id="g1138-9-1">
          <rect
             y="104.72219"
             x="43.56493"
             height="10"
             width="10"
             id="rect1070-22-1"
             style="opacity:1;fill:none;fill-opacity:1;stroke:#eeeeee;stroke-width:0.40806979;stroke-miterlimit:4;stroke-dasharray:none;stroke-dashoffset:0;stroke-opacity:1" />
          <rect
             y="104.72219"
             x="53.56493"
             height="10"
             width="10"
             id="rect1070-1-8-5"
             style="opacity:1;fill:none;fill-opacity:1;stroke:#eeeeee;stroke-width:0.40806982;stroke-miterlimit:4;stroke-dasharray:none;stroke-dashoffset:0;stroke-opacity:1" />
          <rect
             y="104.72219"
             x="63.56493"
             height="10"
             width="10"
             id="rect1070-8-9-9"
             style="opacity:1;fill:none;fill-opacity:1;stroke:#eeeeee;stroke-width:0.40806982;stroke-miterlimit:4;stroke-dasharray:none;stroke-dashoffset:0;stroke-opacity:1" />
          <rect
             y="104.72219"
             x="73.564926"
             height="10"
             width="10"
             id="rect1070-7-7-7"
             style="opacity:1;fill:none;fill-opacity:1;stroke:#eeeeee;stroke-width:0.40806982;stroke-miterlimit:4;stroke-dasharray:none;stroke-dashoffset:0;stroke-opacity:1" />
          <rect
             y="104.72219"
             x="83.564926"
             height="10"
             width="10"
             id="rect1070-9-3-7"
             style="opacity:1;fill:none;fill-opacity:1;stroke:#eeeeee;stroke-width:0.40806982;stroke-miterlimit:4;stroke-dasharray:none;stroke-dashoffset:0;stroke-opacity:1" />
          <rect
             y="104.72219"
             x="93.564926"
             height="10"
             width="10"
             id="rect1070-2-6-6"
             style="opacity:1;fill:none;fill-opacity:1;stroke:#eeeeee;stroke-width:0.40806982;stroke-miterlimit:4;stroke-dasharray:none;stroke-dashoffset:0;stroke-opacity:1" />
          <rect
             y="104.72219"
             x="103.56493"
             height="10"
             width="10"
             id="rect1070-0-1-7"
             style="opacity:1;fill:none;fill-opacity:1;stroke:#eeeeee;stroke-width:0.40806982;stroke-miterlimit:4;stroke-dasharray:none;stroke-dashoffset:0;stroke-opacity:1" />
          <rect
             y="104.72219"
             x="113.56493"
             height="10"
             width="10"
             id="rect1070-23-2-3"
             style="opacity:1;fill:none;fill-opacity:1;stroke:#eeeeee;stroke-width:0.40806982;stroke-miterlimit:4;stroke-dasharray:none;stroke-dashoffset:0;stroke-opacity:1" />
          <rect
             y="104.72219"
             x="123.56493"
             height="10"
             width="10"
             id="rect1070-75-9-6"
             style="opacity:1;fill:none;fill-opacity:1;stroke:#eeeeee;stroke-width:0.40806982;stroke-miterlimit:4;stroke-dasharray:none;stroke-dashoffset:0;stroke-opacity:1" />
        </g>
        <g
           style="stroke:#eeeeee;stroke-opacity:1"
           transform="translate(0,20)"
           id="g1138-3-5">
          <rect
             y="104.72219"
             x="43.56493"
             height="10"
             width="10"
             id="rect1070-19-6"
             style="opacity:1;fill:none;fill-opacity:1;stroke:#eeeeee;stroke-width:0.40806979;stroke-miterlimit:4;stroke-dasharray:none;stroke-dashoffset:0;stroke-opacity:1" />
          <rect
             y="104.72219"
             x="53.56493"
             height="10"
             width="10"
             id="rect1070-1-4-3"
             style="opacity:1;fill:none;fill-opacity:1;stroke:#eeeeee;stroke-width:0.40806982;stroke-miterlimit:4;stroke-dasharray:none;stroke-dashoffset:0;stroke-opacity:1" />
          <rect
             y="104.72219"
             x="63.56493"
             height="10"
             width="10"
             id="rect1070-8-7-9"
             style="opacity:1;fill:none;fill-opacity:1;stroke:#eeeeee;stroke-width:0.40806982;stroke-miterlimit:4;stroke-dasharray:none;stroke-dashoffset:0;stroke-opacity:1" />
          <rect
             y="104.72219"
             x="73.564926"
             height="10"
             width="10"
             id="rect1070-7-8-4"
             style="opacity:1;fill:none;fill-opacity:1;stroke:#eeeeee;stroke-width:0.40806982;stroke-miterlimit:4;stroke-dasharray:none;stroke-dashoffset:0;stroke-opacity:1" />
          <rect
             y="104.72219"
             x="83.564926"
             height="10"
             width="10"
             id="rect1070-9-4-8"
             style="opacity:1;fill:none;fill-opacity:1;stroke:#eeeeee;stroke-width:0.40806982;stroke-miterlimit:4;stroke-dasharray:none;stroke-dashoffset:0;stroke-opacity:1" />
          <rect
             y="104.72219"
             x="93.564926"
             height="10"
             width="10"
             id="rect1070-2-5-1"
             style="opacity:1;fill:none;fill-opacity:1;stroke:#eeeeee;stroke-width:0.40806982;stroke-miterlimit:4;stroke-dasharray:none;stroke-dashoffset:0;stroke-opacity:1" />
          <rect
             y="104.72219"
             x="103.56493"
             height="10"
             width="10"
             id="rect1070-0-0-2"
             style="opacity:1;fill:none;fill-opacity:1;stroke:#eeeeee;stroke-width:0.40806982;stroke-miterlimit:4;stroke-dasharray:none;stroke-dashoffset:0;stroke-opacity:1" />
          <rect
             y="104.72219"
             x="113.56493"
             height="10"
             width="10"
             id="rect1070-23-3-9"
             style="opacity:1;fill:none;fill-opacity:1;stroke:#eeeeee;stroke-width:0.40806982;stroke-miterlimit:4;stroke-dasharray:none;stroke-dashoffset:0;stroke-opacity:1" />
          <rect
             y="104.72219"
             x="123.56493"
             height="10"
             width="10"
             id="rect1070-75-6-3"
             style="opacity:1;fill:none;fill-opacity:1;stroke:#eeeeee;stroke-width:0.40806982;stroke-miterlimit:4;stroke-dasharray:none;stroke-dashoffset:0;stroke-opacity:1" />
        </g>
        <g
           style="stroke:#eeeeee;stroke-opacity:1"
           transform="translate(0,30)"
           id="g1138-1-9">
          <rect
             y="104.72219"
             x="43.56493"
             height="10"
             width="10"
             id="rect1070-06-0"
             style="opacity:1;fill:none;fill-opacity:1;stroke:#eeeeee;stroke-width:0.40806979;stroke-miterlimit:4;stroke-dasharray:none;stroke-dashoffset:0;stroke-opacity:1" />
          <rect
             y="104.72219"
             x="53.56493"
             height="10"
             width="10"
             id="rect1070-1-3-8"
             style="opacity:1;fill:none;fill-opacity:1;stroke:#eeeeee;stroke-width:0.40806982;stroke-miterlimit:4;stroke-dasharray:none;stroke-dashoffset:0;stroke-opacity:1" />
          <rect
             y="104.72219"
             x="63.56493"
             height="10"
             width="10"
             id="rect1070-8-2-8"
             style="opacity:1;fill:none;fill-opacity:1;stroke:#eeeeee;stroke-width:0.40806982;stroke-miterlimit:4;stroke-dasharray:none;stroke-dashoffset:0;stroke-opacity:1" />
          <rect
             y="104.72219"
             x="73.564926"
             height="10"
             width="10"
             id="rect1070-7-0-5"
             style="opacity:1;fill:none;fill-opacity:1;stroke:#eeeeee;stroke-width:0.40806982;stroke-miterlimit:4;stroke-dasharray:none;stroke-dashoffset:0;stroke-opacity:1" />
          <rect
             y="104.72219"
             x="83.564926"
             height="10"
             width="10"
             id="rect1070-9-6-0"
             style="opacity:1;fill:none;fill-opacity:1;stroke:#eeeeee;stroke-width:0.40806982;stroke-miterlimit:4;stroke-dasharray:none;stroke-dashoffset:0;stroke-opacity:1" />
          <rect
             y="104.72219"
             x="93.564926"
             height="10"
             width="10"
             id="rect1070-2-1-9"
             style="opacity:1;fill:none;fill-opacity:1;stroke:#eeeeee;stroke-width:0.40806982;stroke-miterlimit:4;stroke-dasharray:none;stroke-dashoffset:0;stroke-opacity:1" />
          <rect
             y="104.72219"
             x="103.56493"
             height="10"
             width="10"
             id="rect1070-0-5-6"
             style="opacity:1;fill:none;fill-opacity:1;stroke:#eeeeee;stroke-width:0.40806982;stroke-miterlimit:4;stroke-dasharray:none;stroke-dashoffset:0;stroke-opacity:1" />
          <rect
             y="104.72219"
             x="113.56493"
             height="10"
             width="10"
             id="rect1070-23-5-3"
             style="opacity:1;fill:none;fill-opacity:1;stroke:#eeeeee;stroke-width:0.40806982;stroke-miterlimit:4;stroke-dasharray:none;stroke-dashoffset:0;stroke-opacity:1" />
          <rect
             y="104.72219"
             x="123.56493"
             height="10"
             width="10"
             id="rect1070-75-4-8"
             style="opacity:1;fill:none;fill-opacity:1;stroke:#eeeeee;stroke-width:0.40806982;stroke-miterlimit:4;stroke-dasharray:none;stroke-dashoffset:0;stroke-opacity:1" />
        </g>
        <g
           style="stroke:#eeeeee;stroke-opacity:1"
           transform="translate(0,40)"
           id="g1138-7-5">
          <rect
             y="104.72219"
             x="43.56493"
             height="10"
             width="10"
             id="rect1070-6-6"
             style="opacity:1;fill:none;fill-opacity:1;stroke:#eeeeee;stroke-width:0.40806979;stroke-miterlimit:4;stroke-dasharray:none;stroke-dashoffset:0;stroke-opacity:1" />
          <rect
             y="104.72219"
             x="53.56493"
             height="10"
             width="10"
             id="rect1070-1-5-1"
             style="opacity:1;fill:none;fill-opacity:1;stroke:#eeeeee;stroke-width:0.40806982;stroke-miterlimit:4;stroke-dasharray:none;stroke-dashoffset:0;stroke-opacity:1" />
          <rect
             y="104.72219"
             x="63.56493"
             height="10"
             width="10"
             id="rect1070-8-6-1"
             style="opacity:1;fill:none;fill-opacity:1;stroke:#eeeeee;stroke-width:0.40806982;stroke-miterlimit:4;stroke-dasharray:none;stroke-dashoffset:0;stroke-opacity:1" />
          <rect
             y="104.72219"
             x="73.564926"
             height="10"
             width="10"
             id="rect1070-7-9-5"
             style="opacity:1;fill:none;fill-opacity:1;stroke:#eeeeee;stroke-width:0.40806982;stroke-miterlimit:4;stroke-dasharray:none;stroke-dashoffset:0;stroke-opacity:1" />
          <rect
             y="104.72219"
             x="83.564926"
             height="10"
             width="10"
             id="rect1070-9-37-9"
             style="opacity:1;fill:none;fill-opacity:1;stroke:#eeeeee;stroke-width:0.40806982;stroke-miterlimit:4;stroke-dasharray:none;stroke-dashoffset:0;stroke-opacity:1" />
          <rect
             y="104.72219"
             x="93.564926"
             height="10"
             width="10"
             id="rect1070-2-4-8"
             style="opacity:1;fill:none;fill-opacity:1;stroke:#eeeeee;stroke-width:0.40806982;stroke-miterlimit:4;stroke-dasharray:none;stroke-dashoffset:0;stroke-opacity:1" />
          <rect
             y="104.72219"
             x="103.56493"
             height="10"
             width="10"
             id="rect1070-0-52-4"
             style="opacity:1;fill:none;fill-opacity:1;stroke:#eeeeee;stroke-width:0.40806982;stroke-miterlimit:4;stroke-dasharray:none;stroke-dashoffset:0;stroke-opacity:1" />
          <rect
             y="104.72219"
             x="113.56493"
             height="10"
             width="10"
             id="rect1070-23-54-8"
             style="opacity:1;fill:none;fill-opacity:1;stroke:#eeeeee;stroke-width:0.40806982;stroke-miterlimit:4;stroke-dasharray:none;stroke-dashoffset:0;stroke-opacity:1" />
          <rect
             y="104.72219"
             x="123.56493"
             height="10"
             width="10"
             id="rect1070-75-7-1"
             style="opacity:1;fill:none;fill-opacity:1;stroke:#eeeeee;stroke-width:0.40806982;stroke-miterlimit:4;stroke-dasharray:none;stroke-dashoffset:0;stroke-opacity:1" />
        </g>
        <g
           style="stroke:#eeeeee;stroke-opacity:1"
           transform="translate(0,50)"
           id="g1138-4-0">
          <rect
             y="104.72219"
             x="43.56493"
             height="10"
             width="10"
             id="rect1070-4-3"
             style="opacity:1;fill:none;fill-opacity:1;stroke:#eeeeee;stroke-width:0.40806979;stroke-miterlimit:4;stroke-dasharray:none;stroke-dashoffset:0;stroke-opacity:1" />
          <rect
             y="104.72219"
             x="53.56493"
             height="10"
             width="10"
             id="rect1070-1-30-0"
             style="opacity:1;fill:none;fill-opacity:1;stroke:#eeeeee;stroke-width:0.40806982;stroke-miterlimit:4;stroke-dasharray:none;stroke-dashoffset:0;stroke-opacity:1" />
          <rect
             y="104.72219"
             x="63.56493"
             height="10"
             width="10"
             id="rect1070-8-78-4"
             style="opacity:1;fill:none;fill-opacity:1;stroke:#eeeeee;stroke-width:0.40806982;stroke-miterlimit:4;stroke-dasharray:none;stroke-dashoffset:0;stroke-opacity:1" />
          <rect
             y="104.72219"
             x="73.564926"
             height="10"
             width="10"
             id="rect1070-7-6-4"
             style="opacity:1;fill:none;fill-opacity:1;stroke:#eeeeee;stroke-width:0.40806982;stroke-miterlimit:4;stroke-dasharray:none;stroke-dashoffset:0;stroke-opacity:1" />
          <rect
             y="104.72219"
             x="83.564926"
             height="10"
             width="10"
             id="rect1070-9-8-4"
             style="opacity:1;fill:none;fill-opacity:1;stroke:#eeeeee;stroke-width:0.40806982;stroke-miterlimit:4;stroke-dasharray:none;stroke-dashoffset:0;stroke-opacity:1" />
          <rect
             y="104.72219"
             x="93.564926"
             height="10"
             width="10"
             id="rect1070-2-8-4"
             style="opacity:1;fill:none;fill-opacity:1;stroke:#eeeeee;stroke-width:0.40806982;stroke-miterlimit:4;stroke-dasharray:none;stroke-dashoffset:0;stroke-opacity:1" />
          <rect
             y="104.72219"
             x="103.56493"
             height="10"
             width="10"
             id="rect1070-0-4-7"
             style="opacity:1;fill:none;fill-opacity:1;stroke:#eeeeee;stroke-width:0.40806982;stroke-miterlimit:4;stroke-dasharray:none;stroke-dashoffset:0;stroke-opacity:1" />
          <rect
             y="104.72219"
             x="113.56493"
             height="10"
             width="10"
             id="rect1070-23-31-6"
             style="opacity:1;fill:none;fill-opacity:1;stroke:#eeeeee;stroke-width:0.40806982;stroke-miterlimit:4;stroke-dasharray:none;stroke-dashoffset:0;stroke-opacity:1" />
          <rect
             y="104.72219"
             x="123.56493"
             height="10"
             width="10"
             id="rect1070-75-49-3"
             style="opacity:1;fill:none;fill-opacity:1;stroke:#eeeeee;stroke-width:0.40806982;stroke-miterlimit:4;stroke-dasharray:none;stroke-dashoffset:0;stroke-opacity:1" />
        </g>
        <g
           style="stroke:#eeeeee;stroke-opacity:1"
           transform="translate(0,60)"
           id="g1138-2-1">
          <rect
             y="104.72219"
             x="43.56493"
             height="10"
             width="10"
             id="rect1070-068-7"
             style="opacity:1;fill:none;fill-opacity:1;stroke:#eeeeee;stroke-width:0.40806979;stroke-miterlimit:4;stroke-dasharray:none;stroke-dashoffset:0;stroke-opacity:1" />
          <rect
             y="104.72219"
             x="53.56493"
             height="10"
             width="10"
             id="rect1070-1-9-5"
             style="opacity:1;fill:none;fill-opacity:1;stroke:#eeeeee;stroke-width:0.40806982;stroke-miterlimit:4;stroke-dasharray:none;stroke-dashoffset:0;stroke-opacity:1" />
          <rect
             y="104.72219"
             x="63.56493"
             height="10"
             width="10"
             id="rect1070-8-26-9"
             style="opacity:1;fill:none;fill-opacity:1;stroke:#eeeeee;stroke-width:0.40806982;stroke-miterlimit:4;stroke-dasharray:none;stroke-dashoffset:0;stroke-opacity:1" />
          <rect
             y="104.72219"
             x="73.564926"
             height="10"
             width="10"
             id="rect1070-7-64-6"
             style="opacity:1;fill:none;fill-opacity:1;stroke:#eeeeee;stroke-width:0.40806982;stroke-miterlimit:4;stroke-dasharray:none;stroke-dashoffset:0;stroke-opacity:1" />
          <rect
             y="104.72219"
             x="83.564926"
             height="10"
             width="10"
             id="rect1070-9-9-2"
             style="opacity:1;fill:none;fill-opacity:1;stroke:#eeeeee;stroke-width:0.40806982;stroke-miterlimit:4;stroke-dasharray:none;stroke-dashoffset:0;stroke-opacity:1" />
          <rect
             y="104.72219"
             x="93.564926"
             height="10"
             width="10"
             id="rect1070-2-50-1"
             style="opacity:1;fill:none;fill-opacity:1;stroke:#eeeeee;stroke-width:0.40806982;stroke-miterlimit:4;stroke-dasharray:none;stroke-dashoffset:0;stroke-opacity:1" />
          <rect
             y="104.72219"
             x="103.56493"
             height="10"
             width="10"
             id="rect1070-0-48-7"
             style="opacity:1;fill:none;fill-opacity:1;stroke:#eeeeee;stroke-width:0.40806982;stroke-miterlimit:4;stroke-dasharray:none;stroke-dashoffset:0;stroke-opacity:1" />
          <rect
             y="104.72219"
             x="113.56493"
             height="10"
             width="10"
             id="rect1070-23-7-8"
             style="opacity:1;fill:none;fill-opacity:1;stroke:#eeeeee;stroke-width:0.40806982;stroke-miterlimit:4;stroke-dasharray:none;stroke-dashoffset:0;stroke-opacity:1" />
          <rect
             y="104.72219"
             x="123.56493"
             height="10"
             width="10"
             id="rect1070-75-1-5"
             style="opacity:1;fill:none;fill-opacity:1;stroke:#eeeeee;stroke-width:0.40806982;stroke-miterlimit:4;stroke-dasharray:none;stroke-dashoffset:0;stroke-opacity:1" />
        </g>
      </g>
    </g>
    <g
       id="g2794"
       transform="translate(-17.292524,-8.261578)">
      <rect
         y="17.257689"
         x="124.05471"
         height="69.999786"
         width="90"
         id="rect815-6-5-7-2-9"
         style="opacity:1;fill:#717171;fill-opacity:1;stroke:none;stroke-width:0.45288986;stroke-miterlimit:4;stroke-dasharray:none;stroke-dashoffset:0;stroke-opacity:1" />
      <path
         id="rect815-6-0-7-1"
         d="m 160.48864,17.257475 c 0.50152,2.433794 1.16259,5.547095 2.09246,9.75152 2.51157,11.356176 7.02224,18.523083 13.21105,22.559397 4.75432,-4.139335 10.04479,-9.160422 14.26248,-17.335513 3.83023,-7.424071 7.10359,-12.065312 9.71489,-14.975404 z"
         style="opacity:1;fill:#222222;fill-opacity:1;stroke:none;stroke-width:0.45288983;stroke-miterlimit:4;stroke-dasharray:none;stroke-dashoffset:0;stroke-opacity:1"
         inkscape:connector-curvature="0" />
      <path
         id="rect815-9-2-9"
         d="m 199.76952,17.25748 c -2.6113,2.910091 -5.88466,7.551333 -9.71489,14.975405 -10.42105,20.198944 -27.45052,21.242019 -26.52654,36.915314 0.31183,5.289423 -3.39829,11.948874 -6.79938,18.109192 h 57.32588 V 17.25748 Z"
         style="opacity:1;fill:#161616;fill-opacity:1;stroke:none;stroke-width:0.45288986;stroke-miterlimit:4;stroke-dasharray:none;stroke-dashoffset:0;stroke-opacity:1"
         inkscape:connector-curvature="0" />
      <g
         style="stroke:#eeeeee;stroke-opacity:1"
         transform="translate(80.489782,-87.464611)"
         id="g1390-2-6">
        <g
           style="stroke:#eeeeee;stroke-opacity:1"
           id="g1138-6-2">
          <rect
             y="104.72219"
             x="43.56493"
             height="10"
             width="10"
             id="rect1070-10-5"
             style="opacity:1;fill:none;fill-opacity:1;stroke:#eeeeee;stroke-width:0.40806979;stroke-miterlimit:4;stroke-dasharray:none;stroke-dashoffset:0;stroke-opacity:1" />
          <rect
             y="104.72219"
             x="53.56493"
             height="10"
             width="10"
             id="rect1070-1-6-4"
             style="opacity:1;fill:none;fill-opacity:1;stroke:#eeeeee;stroke-width:0.40806982;stroke-miterlimit:4;stroke-dasharray:none;stroke-dashoffset:0;stroke-opacity:1" />
          <rect
             y="104.72219"
             x="63.56493"
             height="10"
             width="10"
             id="rect1070-8-1-4"
             style="opacity:1;fill:none;fill-opacity:1;stroke:#eeeeee;stroke-width:0.40806982;stroke-miterlimit:4;stroke-dasharray:none;stroke-dashoffset:0;stroke-opacity:1" />
          <rect
             y="104.72219"
             x="73.564926"
             height="10"
             width="10"
             id="rect1070-7-5-9"
             style="opacity:1;fill:none;fill-opacity:1;stroke:#eeeeee;stroke-width:0.40806982;stroke-miterlimit:4;stroke-dasharray:none;stroke-dashoffset:0;stroke-opacity:1" />
          <rect
             y="104.72219"
             x="83.564926"
             height="10"
             width="10"
             id="rect1070-9-94-9"
             style="opacity:1;fill:none;fill-opacity:1;stroke:#eeeeee;stroke-width:0.40806982;stroke-miterlimit:4;stroke-dasharray:none;stroke-dashoffset:0;stroke-opacity:1" />
          <rect
             y="104.72219"
             x="93.564926"
             height="10"
             width="10"
             id="rect1070-2-9-3"
             style="opacity:1;fill:none;fill-opacity:1;stroke:#eeeeee;stroke-width:0.40806982;stroke-miterlimit:4;stroke-dasharray:none;stroke-dashoffset:0;stroke-opacity:1" />
          <rect
             y="104.72219"
             x="103.56493"
             height="10"
             width="10"
             id="rect1070-0-09-6"
             style="opacity:1;fill:none;fill-opacity:1;stroke:#eeeeee;stroke-width:0.40806982;stroke-miterlimit:4;stroke-dasharray:none;stroke-dashoffset:0;stroke-opacity:1" />
          <rect
             y="104.72219"
             x="113.56493"
             height="10"
             width="10"
             id="rect1070-23-1-0"
             style="opacity:1;fill:none;fill-opacity:1;stroke:#eeeeee;stroke-width:0.40806982;stroke-miterlimit:4;stroke-dasharray:none;stroke-dashoffset:0;stroke-opacity:1" />
          <rect
             y="104.72219"
             x="123.56493"
             height="10"
             width="10"
             id="rect1070-75-77-5"
             style="opacity:1;fill:none;fill-opacity:1;stroke:#eeeeee;stroke-width:0.40806982;stroke-miterlimit:4;stroke-dasharray:none;stroke-dashoffset:0;stroke-opacity:1" />
        </g>
        <g
           style="stroke:#eeeeee;stroke-opacity:1"
           transform="translate(0,10)"
           id="g1138-9-1-0">
          <rect
             y="104.72219"
             x="43.56493"
             height="10"
             width="10"
             id="rect1070-22-1-2"
             style="opacity:1;fill:none;fill-opacity:1;stroke:#eeeeee;stroke-width:0.40806979;stroke-miterlimit:4;stroke-dasharray:none;stroke-dashoffset:0;stroke-opacity:1" />
          <rect
             y="104.72219"
             x="53.56493"
             height="10"
             width="10"
             id="rect1070-1-8-5-9"
             style="opacity:1;fill:none;fill-opacity:1;stroke:#eeeeee;stroke-width:0.40806982;stroke-miterlimit:4;stroke-dasharray:none;stroke-dashoffset:0;stroke-opacity:1" />
          <rect
             y="104.72219"
             x="63.56493"
             height="10"
             width="10"
             id="rect1070-8-9-9-4"
             style="opacity:1;fill:none;fill-opacity:1;stroke:#eeeeee;stroke-width:0.40806982;stroke-miterlimit:4;stroke-dasharray:none;stroke-dashoffset:0;stroke-opacity:1" />
          <rect
             y="104.72219"
             x="73.564926"
             height="10"
             width="10"
             id="rect1070-7-7-7-3"
             style="opacity:1;fill:none;fill-opacity:1;stroke:#eeeeee;stroke-width:0.40806982;stroke-miterlimit:4;stroke-dasharray:none;stroke-dashoffset:0;stroke-opacity:1" />
          <rect
             y="104.72219"
             x="83.564926"
             height="10"
             width="10"
             id="rect1070-9-3-7-5"
             style="opacity:1;fill:none;fill-opacity:1;stroke:#eeeeee;stroke-width:0.40806982;stroke-miterlimit:4;stroke-dasharray:none;stroke-dashoffset:0;stroke-opacity:1" />
          <rect
             y="104.72219"
             x="93.564926"
             height="10"
             width="10"
             id="rect1070-2-6-6-1"
             style="opacity:1;fill:none;fill-opacity:1;stroke:#eeeeee;stroke-width:0.40806982;stroke-miterlimit:4;stroke-dasharray:none;stroke-dashoffset:0;stroke-opacity:1" />
          <rect
             y="104.72219"
             x="103.56493"
             height="10"
             width="10"
             id="rect1070-0-1-7-7"
             style="opacity:1;fill:none;fill-opacity:1;stroke:#eeeeee;stroke-width:0.40806982;stroke-miterlimit:4;stroke-dasharray:none;stroke-dashoffset:0;stroke-opacity:1" />
          <rect
             y="104.72219"
             x="113.56493"
             height="10"
             width="10"
             id="rect1070-23-2-3-4"
             style="opacity:1;fill:none;fill-opacity:1;stroke:#eeeeee;stroke-width:0.40806982;stroke-miterlimit:4;stroke-dasharray:none;stroke-dashoffset:0;stroke-opacity:1" />
          <rect
             y="104.72219"
             x="123.56493"
             height="10"
             width="10"
             id="rect1070-75-9-6-3"
             style="opacity:1;fill:none;fill-opacity:1;stroke:#eeeeee;stroke-width:0.40806982;stroke-miterlimit:4;stroke-dasharray:none;stroke-dashoffset:0;stroke-opacity:1" />
        </g>
        <g
           style="stroke:#eeeeee;stroke-opacity:1"
           transform="translate(0,20)"
           id="g1138-3-5-1">
          <rect
             y="104.72219"
             x="43.56493"
             height="10"
             width="10"
             id="rect1070-19-6-4"
             style="opacity:1;fill:none;fill-opacity:1;stroke:#eeeeee;stroke-width:0.40806979;stroke-miterlimit:4;stroke-dasharray:none;stroke-dashoffset:0;stroke-opacity:1" />
          <rect
             y="104.72219"
             x="53.56493"
             height="10"
             width="10"
             id="rect1070-1-4-3-6"
             style="opacity:1;fill:none;fill-opacity:1;stroke:#eeeeee;stroke-width:0.40806982;stroke-miterlimit:4;stroke-dasharray:none;stroke-dashoffset:0;stroke-opacity:1" />
          <rect
             y="104.72219"
             x="63.56493"
             height="10"
             width="10"
             id="rect1070-8-7-9-9"
             style="opacity:1;fill:none;fill-opacity:1;stroke:#eeeeee;stroke-width:0.40806982;stroke-miterlimit:4;stroke-dasharray:none;stroke-dashoffset:0;stroke-opacity:1" />
          <rect
             y="104.72219"
             x="73.564926"
             height="10"
             width="10"
             id="rect1070-7-8-4-4"
             style="opacity:1;fill:none;fill-opacity:1;stroke:#eeeeee;stroke-width:0.40806982;stroke-miterlimit:4;stroke-dasharray:none;stroke-dashoffset:0;stroke-opacity:1" />
          <rect
             y="104.72219"
             x="83.564926"
             height="10"
             width="10"
             id="rect1070-9-4-8-2"
             style="opacity:1;fill:none;fill-opacity:1;stroke:#eeeeee;stroke-width:0.40806982;stroke-miterlimit:4;stroke-dasharray:none;stroke-dashoffset:0;stroke-opacity:1" />
          <rect
             y="104.72219"
             x="93.564926"
             height="10"
             width="10"
             id="rect1070-2-5-1-2"
             style="opacity:1;fill:none;fill-opacity:1;stroke:#eeeeee;stroke-width:0.40806982;stroke-miterlimit:4;stroke-dasharray:none;stroke-dashoffset:0;stroke-opacity:1" />
          <rect
             y="104.72219"
             x="103.56493"
             height="10"
             width="10"
             id="rect1070-0-0-2-6"
             style="opacity:1;fill:none;fill-opacity:1;stroke:#eeeeee;stroke-width:0.40806982;stroke-miterlimit:4;stroke-dasharray:none;stroke-dashoffset:0;stroke-opacity:1" />
          <rect
             y="104.72219"
             x="113.56493"
             height="10"
             width="10"
             id="rect1070-23-3-9-4"
             style="opacity:1;fill:none;fill-opacity:1;stroke:#eeeeee;stroke-width:0.40806982;stroke-miterlimit:4;stroke-dasharray:none;stroke-dashoffset:0;stroke-opacity:1" />
          <rect
             y="104.72219"
             x="123.56493"
             height="10"
             width="10"
             id="rect1070-75-6-3-1"
             style="opacity:1;fill:none;fill-opacity:1;stroke:#eeeeee;stroke-width:0.40806982;stroke-miterlimit:4;stroke-dasharray:none;stroke-dashoffset:0;stroke-opacity:1" />
        </g>
        <g
           style="stroke:#eeeeee;stroke-opacity:1"
           transform="translate(0,30)"
           id="g1138-1-9-2">
          <rect
             y="104.72219"
             x="43.56493"
             height="10"
             width="10"
             id="rect1070-06-0-8"
             style="opacity:1;fill:none;fill-opacity:1;stroke:#eeeeee;stroke-width:0.40806979;stroke-miterlimit:4;stroke-dasharray:none;stroke-dashoffset:0;stroke-opacity:1" />
          <rect
             y="104.72219"
             x="53.56493"
             height="10"
             width="10"
             id="rect1070-1-3-8-8"
             style="opacity:1;fill:none;fill-opacity:1;stroke:#eeeeee;stroke-width:0.40806982;stroke-miterlimit:4;stroke-dasharray:none;stroke-dashoffset:0;stroke-opacity:1" />
          <rect
             y="104.72219"
             x="63.56493"
             height="10"
             width="10"
             id="rect1070-8-2-8-9"
             style="opacity:1;fill:none;fill-opacity:1;stroke:#eeeeee;stroke-width:0.40806982;stroke-miterlimit:4;stroke-dasharray:none;stroke-dashoffset:0;stroke-opacity:1" />
          <rect
             y="104.72219"
             x="73.564926"
             height="10"
             width="10"
             id="rect1070-7-0-5-2"
             style="opacity:1;fill:none;fill-opacity:1;stroke:#eeeeee;stroke-width:0.40806982;stroke-miterlimit:4;stroke-dasharray:none;stroke-dashoffset:0;stroke-opacity:1" />
          <rect
             y="104.72219"
             x="83.564926"
             height="10"
             width="10"
             id="rect1070-9-6-0-8"
             style="opacity:1;fill:none;fill-opacity:1;stroke:#eeeeee;stroke-width:0.40806982;stroke-miterlimit:4;stroke-dasharray:none;stroke-dashoffset:0;stroke-opacity:1" />
          <rect
             y="104.72219"
             x="93.564926"
             height="10"
             width="10"
             id="rect1070-2-1-9-8"
             style="opacity:1;fill:none;fill-opacity:1;stroke:#eeeeee;stroke-width:0.40806982;stroke-miterlimit:4;stroke-dasharray:none;stroke-dashoffset:0;stroke-opacity:1" />
          <rect
             y="104.72219"
             x="103.56493"
             height="10"
             width="10"
             id="rect1070-0-5-6-8"
             style="opacity:1;fill:none;fill-opacity:1;stroke:#eeeeee;stroke-width:0.40806982;stroke-miterlimit:4;stroke-dasharray:none;stroke-dashoffset:0;stroke-opacity:1" />
          <rect
             y="104.72219"
             x="113.56493"
             height="10"
             width="10"
             id="rect1070-23-5-3-6"
             style="opacity:1;fill:none;fill-opacity:1;stroke:#eeeeee;stroke-width:0.40806982;stroke-miterlimit:4;stroke-dasharray:none;stroke-dashoffset:0;stroke-opacity:1" />
          <rect
             y="104.72219"
             x="123.56493"
             height="10"
             width="10"
             id="rect1070-75-4-8-8"
             style="opacity:1;fill:none;fill-opacity:1;stroke:#eeeeee;stroke-width:0.40806982;stroke-miterlimit:4;stroke-dasharray:none;stroke-dashoffset:0;stroke-opacity:1" />
        </g>
        <g
           style="stroke:#eeeeee;stroke-opacity:1"
           transform="translate(0,40)"
           id="g1138-7-5-3">
          <rect
             y="104.72219"
             x="43.56493"
             height="10"
             width="10"
             id="rect1070-6-6-8"
             style="opacity:1;fill:none;fill-opacity:1;stroke:#eeeeee;stroke-width:0.40806979;stroke-miterlimit:4;stroke-dasharray:none;stroke-dashoffset:0;stroke-opacity:1" />
          <rect
             y="104.72219"
             x="53.56493"
             height="10"
             width="10"
             id="rect1070-1-5-1-3"
             style="opacity:1;fill:none;fill-opacity:1;stroke:#eeeeee;stroke-width:0.40806982;stroke-miterlimit:4;stroke-dasharray:none;stroke-dashoffset:0;stroke-opacity:1" />
          <rect
             y="104.72219"
             x="63.56493"
             height="10"
             width="10"
             id="rect1070-8-6-1-3"
             style="opacity:1;fill:none;fill-opacity:1;stroke:#eeeeee;stroke-width:0.40806982;stroke-miterlimit:4;stroke-dasharray:none;stroke-dashoffset:0;stroke-opacity:1" />
          <rect
             y="104.72219"
             x="73.564926"
             height="10"
             width="10"
             id="rect1070-7-9-5-3"
             style="opacity:1;fill:none;fill-opacity:1;stroke:#eeeeee;stroke-width:0.40806982;stroke-miterlimit:4;stroke-dasharray:none;stroke-dashoffset:0;stroke-opacity:1" />
          <rect
             y="104.72219"
             x="83.564926"
             height="10"
             width="10"
             id="rect1070-9-37-9-8"
             style="opacity:1;fill:none;fill-opacity:1;stroke:#eeeeee;stroke-width:0.40806982;stroke-miterlimit:4;stroke-dasharray:none;stroke-dashoffset:0;stroke-opacity:1" />
          <rect
             y="104.72219"
             x="93.564926"
             height="10"
             width="10"
             id="rect1070-2-4-8-0"
             style="opacity:1;fill:none;fill-opacity:1;stroke:#eeeeee;stroke-width:0.40806982;stroke-miterlimit:4;stroke-dasharray:none;stroke-dashoffset:0;stroke-opacity:1" />
          <rect
             y="104.72219"
             x="103.56493"
             height="10"
             width="10"
             id="rect1070-0-52-4-4"
             style="opacity:1;fill:none;fill-opacity:1;stroke:#eeeeee;stroke-width:0.40806982;stroke-miterlimit:4;stroke-dasharray:none;stroke-dashoffset:0;stroke-opacity:1" />
          <rect
             y="104.72219"
             x="113.56493"
             height="10"
             width="10"
             id="rect1070-23-54-8-7"
             style="opacity:1;fill:none;fill-opacity:1;stroke:#eeeeee;stroke-width:0.40806982;stroke-miterlimit:4;stroke-dasharray:none;stroke-dashoffset:0;stroke-opacity:1" />
          <rect
             y="104.72219"
             x="123.56493"
             height="10"
             width="10"
             id="rect1070-75-7-1-6"
             style="opacity:1;fill:none;fill-opacity:1;stroke:#eeeeee;stroke-width:0.40806982;stroke-miterlimit:4;stroke-dasharray:none;stroke-dashoffset:0;stroke-opacity:1" />
        </g>
        <g
           style="stroke:#eeeeee;stroke-opacity:1"
           transform="translate(0,50)"
           id="g1138-4-0-8">
          <rect
             y="104.72219"
             x="43.56493"
             height="10"
             width="10"
             id="rect1070-4-3-9"
             style="opacity:1;fill:none;fill-opacity:1;stroke:#eeeeee;stroke-width:0.40806979;stroke-miterlimit:4;stroke-dasharray:none;stroke-dashoffset:0;stroke-opacity:1" />
          <rect
             y="104.72219"
             x="53.56493"
             height="10"
             width="10"
             id="rect1070-1-30-0-0"
             style="opacity:1;fill:none;fill-opacity:1;stroke:#eeeeee;stroke-width:0.40806982;stroke-miterlimit:4;stroke-dasharray:none;stroke-dashoffset:0;stroke-opacity:1" />
          <rect
             y="104.72219"
             x="63.56493"
             height="10"
             width="10"
             id="rect1070-8-78-4-6"
             style="opacity:1;fill:none;fill-opacity:1;stroke:#eeeeee;stroke-width:0.40806982;stroke-miterlimit:4;stroke-dasharray:none;stroke-dashoffset:0;stroke-opacity:1" />
          <rect
             y="104.72219"
             x="73.564926"
             height="10"
             width="10"
             id="rect1070-7-6-4-8"
             style="opacity:1;fill:none;fill-opacity:1;stroke:#eeeeee;stroke-width:0.40806982;stroke-miterlimit:4;stroke-dasharray:none;stroke-dashoffset:0;stroke-opacity:1" />
          <rect
             y="104.72219"
             x="83.564926"
             height="10"
             width="10"
             id="rect1070-9-8-4-7"
             style="opacity:1;fill:none;fill-opacity:1;stroke:#eeeeee;stroke-width:0.40806982;stroke-miterlimit:4;stroke-dasharray:none;stroke-dashoffset:0;stroke-opacity:1" />
          <rect
             y="104.72219"
             x="93.564926"
             height="10"
             width="10"
             id="rect1070-2-8-4-9"
             style="opacity:1;fill:none;fill-opacity:1;stroke:#eeeeee;stroke-width:0.40806982;stroke-miterlimit:4;stroke-dasharray:none;stroke-dashoffset:0;stroke-opacity:1" />
          <rect
             y="104.72219"
             x="103.56493"
             height="10"
             width="10"
             id="rect1070-0-4-7-0"
             style="opacity:1;fill:none;fill-opacity:1;stroke:#eeeeee;stroke-width:0.40806982;stroke-miterlimit:4;stroke-dasharray:none;stroke-dashoffset:0;stroke-opacity:1" />
          <rect
             y="104.72219"
             x="113.56493"
             height="10"
             width="10"
             id="rect1070-23-31-6-3"
             style="opacity:1;fill:none;fill-opacity:1;stroke:#eeeeee;stroke-width:0.40806982;stroke-miterlimit:4;stroke-dasharray:none;stroke-dashoffset:0;stroke-opacity:1" />
          <rect
             y="104.72219"
             x="123.56493"
             height="10"
             width="10"
             id="rect1070-75-49-3-3"
             style="opacity:1;fill:none;fill-opacity:1;stroke:#eeeeee;stroke-width:0.40806982;stroke-miterlimit:4;stroke-dasharray:none;stroke-dashoffset:0;stroke-opacity:1" />
        </g>
        <g
           style="stroke:#eeeeee;stroke-opacity:1"
           transform="translate(0,60)"
           id="g1138-2-1-3">
          <rect
             y="104.72219"
             x="43.56493"
             height="10"
             width="10"
             id="rect1070-068-7-7"
             style="opacity:1;fill:none;fill-opacity:1;stroke:#eeeeee;stroke-width:0.40806979;stroke-miterlimit:4;stroke-dasharray:none;stroke-dashoffset:0;stroke-opacity:1" />
          <rect
             y="104.72219"
             x="53.56493"
             height="10"
             width="10"
             id="rect1070-1-9-5-3"
             style="opacity:1;fill:none;fill-opacity:1;stroke:#eeeeee;stroke-width:0.40806982;stroke-miterlimit:4;stroke-dasharray:none;stroke-dashoffset:0;stroke-opacity:1" />
          <rect
             y="104.72219"
             x="63.56493"
             height="10"
             width="10"
             id="rect1070-8-26-9-2"
             style="opacity:1;fill:none;fill-opacity:1;stroke:#eeeeee;stroke-width:0.40806982;stroke-miterlimit:4;stroke-dasharray:none;stroke-dashoffset:0;stroke-opacity:1" />
          <rect
             y="104.72219"
             x="73.564926"
             height="10"
             width="10"
             id="rect1070-7-64-6-6"
             style="opacity:1;fill:none;fill-opacity:1;stroke:#eeeeee;stroke-width:0.40806982;stroke-miterlimit:4;stroke-dasharray:none;stroke-dashoffset:0;stroke-opacity:1" />
          <rect
             y="104.72219"
             x="83.564926"
             height="10"
             width="10"
             id="rect1070-9-9-2-5"
             style="opacity:1;fill:none;fill-opacity:1;stroke:#eeeeee;stroke-width:0.40806982;stroke-miterlimit:4;stroke-dasharray:none;stroke-dashoffset:0;stroke-opacity:1" />
          <rect
             y="104.72219"
             x="93.564926"
             height="10"
             width="10"
             id="rect1070-2-50-1-2"
             style="opacity:1;fill:none;fill-opacity:1;stroke:#eeeeee;stroke-width:0.40806982;stroke-miterlimit:4;stroke-dasharray:none;stroke-dashoffset:0;stroke-opacity:1" />
          <rect
             y="104.72219"
             x="103.56493"
             height="10"
             width="10"
             id="rect1070-0-48-7-6"
             style="opacity:1;fill:none;fill-opacity:1;stroke:#eeeeee;stroke-width:0.40806982;stroke-miterlimit:4;stroke-dasharray:none;stroke-dashoffset:0;stroke-opacity:1" />
          <rect
             y="104.72219"
             x="113.56493"
             height="10"
             width="10"
             id="rect1070-23-7-8-5"
             style="opacity:1;fill:none;fill-opacity:1;stroke:#eeeeee;stroke-width:0.40806982;stroke-miterlimit:4;stroke-dasharray:none;stroke-dashoffset:0;stroke-opacity:1" />
          <rect
             y="104.72219"
             x="123.56493"
             height="10"
             width="10"
             id="rect1070-75-1-5-8"
             style="opacity:1;fill:none;fill-opacity:1;stroke:#eeeeee;stroke-width:0.40806982;stroke-miterlimit:4;stroke-dasharray:none;stroke-dashoffset:0;stroke-opacity:1" />
        </g>
      </g>
    </g>
    <g
       id="g3176">
      <rect
         y="88.902359"
         x="7.9547386"
         height="69.999786"
         width="90"
         id="rect815-6-5-7-2-7"
         style="opacity:1;fill:#424242;fill-opacity:1;stroke:none;stroke-width:0.45288986;stroke-miterlimit:4;stroke-dasharray:none;stroke-dashoffset:0;stroke-opacity:1" />
      <path
         id="rect815-6-0-7-9"
         d="m 44.388669,88.902146 c 0.501512,2.433794 1.162582,5.547095 2.092452,9.75152 2.51157,11.356174 7.022248,18.523084 13.211058,22.559404 4.754312,-4.13934 10.044782,-9.16043 14.262481,-17.33552 3.83023,-7.424071 7.103589,-12.065312 9.714889,-14.975404 z"
         style="opacity:1;fill:#2a2a2a;fill-opacity:1;stroke:none;stroke-width:0.45288983;stroke-miterlimit:4;stroke-dasharray:none;stroke-dashoffset:0;stroke-opacity:1"
         inkscape:connector-curvature="0" />
      <path
         id="rect815-9-2-6"
         d="m 83.669549,88.902151 c -2.6113,2.910091 -5.884659,7.551333 -9.714889,14.975409 -10.421051,20.19894 -27.45052,21.24202 -26.52654,36.91531 0.31183,5.28943 -3.39829,11.94888 -6.799389,18.10919 H 97.95462 V 88.902151 Z"
         style="opacity:1;fill:#191919;fill-opacity:1;stroke:none;stroke-width:0.45288986;stroke-miterlimit:4;stroke-dasharray:none;stroke-dashoffset:0;stroke-opacity:1"
         inkscape:connector-curvature="0" />
      <g
         style="stroke:#eeeeee;stroke-opacity:1"
         transform="translate(-35.610192,-15.81994)"
         id="g1390-2-0">
        <g
           style="stroke:#eeeeee;stroke-opacity:1"
           id="g1138-6-4">
          <rect
             y="104.72219"
             x="43.56493"
             height="10"
             width="10"
             id="rect1070-10-1"
             style="opacity:1;fill:none;fill-opacity:1;stroke:#eeeeee;stroke-width:0.40806979;stroke-miterlimit:4;stroke-dasharray:none;stroke-dashoffset:0;stroke-opacity:1" />
          <rect
             y="104.72219"
             x="53.56493"
             height="10"
             width="10"
             id="rect1070-1-6-0"
             style="opacity:1;fill:none;fill-opacity:1;stroke:#eeeeee;stroke-width:0.40806982;stroke-miterlimit:4;stroke-dasharray:none;stroke-dashoffset:0;stroke-opacity:1" />
          <rect
             y="104.72219"
             x="63.56493"
             height="10"
             width="10"
             id="rect1070-8-1-48"
             style="opacity:1;fill:none;fill-opacity:1;stroke:#eeeeee;stroke-width:0.40806982;stroke-miterlimit:4;stroke-dasharray:none;stroke-dashoffset:0;stroke-opacity:1" />
          <rect
             y="104.72219"
             x="73.564926"
             height="10"
             width="10"
             id="rect1070-7-5-7"
             style="opacity:1;fill:none;fill-opacity:1;stroke:#eeeeee;stroke-width:0.40806982;stroke-miterlimit:4;stroke-dasharray:none;stroke-dashoffset:0;stroke-opacity:1" />
          <rect
             y="104.72219"
             x="83.564926"
             height="10"
             width="10"
             id="rect1070-9-94-0"
             style="opacity:1;fill:none;fill-opacity:1;stroke:#eeeeee;stroke-width:0.40806982;stroke-miterlimit:4;stroke-dasharray:none;stroke-dashoffset:0;stroke-opacity:1" />
          <rect
             y="104.72219"
             x="93.564926"
             height="10"
             width="10"
             id="rect1070-2-9-8"
             style="opacity:1;fill:none;fill-opacity:1;stroke:#eeeeee;stroke-width:0.40806982;stroke-miterlimit:4;stroke-dasharray:none;stroke-dashoffset:0;stroke-opacity:1" />
          <rect
             y="104.72219"
             x="103.56493"
             height="10"
             width="10"
             id="rect1070-0-09-62"
             style="opacity:1;fill:none;fill-opacity:1;stroke:#eeeeee;stroke-width:0.40806982;stroke-miterlimit:4;stroke-dasharray:none;stroke-dashoffset:0;stroke-opacity:1" />
          <rect
             y="104.72219"
             x="113.56493"
             height="10"
             width="10"
             id="rect1070-23-1-4"
             style="opacity:1;fill:none;fill-opacity:1;stroke:#eeeeee;stroke-width:0.40806982;stroke-miterlimit:4;stroke-dasharray:none;stroke-dashoffset:0;stroke-opacity:1" />
          <rect
             y="104.72219"
             x="123.56493"
             height="10"
             width="10"
             id="rect1070-75-77-7"
             style="opacity:1;fill:none;fill-opacity:1;stroke:#eeeeee;stroke-width:0.40806982;stroke-miterlimit:4;stroke-dasharray:none;stroke-dashoffset:0;stroke-opacity:1" />
        </g>
        <g
           style="stroke:#eeeeee;stroke-opacity:1"
           transform="translate(0,10)"
           id="g1138-9-1-9">
          <rect
             y="104.72219"
             x="43.56493"
             height="10"
             width="10"
             id="rect1070-22-1-3"
             style="opacity:1;fill:none;fill-opacity:1;stroke:#eeeeee;stroke-width:0.40806979;stroke-miterlimit:4;stroke-dasharray:none;stroke-dashoffset:0;stroke-opacity:1" />
          <rect
             y="104.72219"
             x="53.56493"
             height="10"
             width="10"
             id="rect1070-1-8-5-92"
             style="opacity:1;fill:none;fill-opacity:1;stroke:#eeeeee;stroke-width:0.40806982;stroke-miterlimit:4;stroke-dasharray:none;stroke-dashoffset:0;stroke-opacity:1" />
          <rect
             y="104.72219"
             x="63.56493"
             height="10"
             width="10"
             id="rect1070-8-9-9-8"
             style="opacity:1;fill:none;fill-opacity:1;stroke:#eeeeee;stroke-width:0.40806982;stroke-miterlimit:4;stroke-dasharray:none;stroke-dashoffset:0;stroke-opacity:1" />
          <rect
             y="104.72219"
             x="73.564926"
             height="10"
             width="10"
             id="rect1070-7-7-7-30"
             style="opacity:1;fill:none;fill-opacity:1;stroke:#eeeeee;stroke-width:0.40806982;stroke-miterlimit:4;stroke-dasharray:none;stroke-dashoffset:0;stroke-opacity:1" />
          <rect
             y="104.72219"
             x="83.564926"
             height="10"
             width="10"
             id="rect1070-9-3-7-1"
             style="opacity:1;fill:none;fill-opacity:1;stroke:#eeeeee;stroke-width:0.40806982;stroke-miterlimit:4;stroke-dasharray:none;stroke-dashoffset:0;stroke-opacity:1" />
          <rect
             y="104.72219"
             x="93.564926"
             height="10"
             width="10"
             id="rect1070-2-6-6-7"
             style="opacity:1;fill:none;fill-opacity:1;stroke:#eeeeee;stroke-width:0.40806982;stroke-miterlimit:4;stroke-dasharray:none;stroke-dashoffset:0;stroke-opacity:1" />
          <rect
             y="104.72219"
             x="103.56493"
             height="10"
             width="10"
             id="rect1070-0-1-7-8"
             style="opacity:1;fill:none;fill-opacity:1;stroke:#eeeeee;stroke-width:0.40806982;stroke-miterlimit:4;stroke-dasharray:none;stroke-dashoffset:0;stroke-opacity:1" />
          <rect
             y="104.72219"
             x="113.56493"
             height="10"
             width="10"
             id="rect1070-23-2-3-9"
             style="opacity:1;fill:none;fill-opacity:1;stroke:#eeeeee;stroke-width:0.40806982;stroke-miterlimit:4;stroke-dasharray:none;stroke-dashoffset:0;stroke-opacity:1" />
          <rect
             y="104.72219"
             x="123.56493"
             height="10"
             width="10"
             id="rect1070-75-9-6-1"
             style="opacity:1;fill:none;fill-opacity:1;stroke:#eeeeee;stroke-width:0.40806982;stroke-miterlimit:4;stroke-dasharray:none;stroke-dashoffset:0;stroke-opacity:1" />
        </g>
        <g
           style="stroke:#eeeeee;stroke-opacity:1"
           transform="translate(0,20)"
           id="g1138-3-5-5">
          <rect
             y="104.72219"
             x="43.56493"
             height="10"
             width="10"
             id="rect1070-19-6-49"
             style="opacity:1;fill:none;fill-opacity:1;stroke:#eeeeee;stroke-width:0.40806979;stroke-miterlimit:4;stroke-dasharray:none;stroke-dashoffset:0;stroke-opacity:1" />
          <rect
             y="104.72219"
             x="53.56493"
             height="10"
             width="10"
             id="rect1070-1-4-3-2"
             style="opacity:1;fill:none;fill-opacity:1;stroke:#eeeeee;stroke-width:0.40806982;stroke-miterlimit:4;stroke-dasharray:none;stroke-dashoffset:0;stroke-opacity:1" />
          <rect
             y="104.72219"
             x="63.56493"
             height="10"
             width="10"
             id="rect1070-8-7-9-5"
             style="opacity:1;fill:none;fill-opacity:1;stroke:#eeeeee;stroke-width:0.40806982;stroke-miterlimit:4;stroke-dasharray:none;stroke-dashoffset:0;stroke-opacity:1" />
          <rect
             y="104.72219"
             x="73.564926"
             height="10"
             width="10"
             id="rect1070-7-8-4-7"
             style="opacity:1;fill:none;fill-opacity:1;stroke:#eeeeee;stroke-width:0.40806982;stroke-miterlimit:4;stroke-dasharray:none;stroke-dashoffset:0;stroke-opacity:1" />
          <rect
             y="104.72219"
             x="83.564926"
             height="10"
             width="10"
             id="rect1070-9-4-8-4"
             style="opacity:1;fill:none;fill-opacity:1;stroke:#eeeeee;stroke-width:0.40806982;stroke-miterlimit:4;stroke-dasharray:none;stroke-dashoffset:0;stroke-opacity:1" />
          <rect
             y="104.72219"
             x="93.564926"
             height="10"
             width="10"
             id="rect1070-2-5-1-9"
             style="opacity:1;fill:none;fill-opacity:1;stroke:#eeeeee;stroke-width:0.40806982;stroke-miterlimit:4;stroke-dasharray:none;stroke-dashoffset:0;stroke-opacity:1" />
          <rect
             y="104.72219"
             x="103.56493"
             height="10"
             width="10"
             id="rect1070-0-0-2-9"
             style="opacity:1;fill:none;fill-opacity:1;stroke:#eeeeee;stroke-width:0.40806982;stroke-miterlimit:4;stroke-dasharray:none;stroke-dashoffset:0;stroke-opacity:1" />
          <rect
             y="104.72219"
             x="113.56493"
             height="10"
             width="10"
             id="rect1070-23-3-9-45"
             style="opacity:1;fill:none;fill-opacity:1;stroke:#eeeeee;stroke-width:0.40806982;stroke-miterlimit:4;stroke-dasharray:none;stroke-dashoffset:0;stroke-opacity:1" />
          <rect
             y="104.72219"
             x="123.56493"
             height="10"
             width="10"
             id="rect1070-75-6-3-9"
             style="opacity:1;fill:none;fill-opacity:1;stroke:#eeeeee;stroke-width:0.40806982;stroke-miterlimit:4;stroke-dasharray:none;stroke-dashoffset:0;stroke-opacity:1" />
        </g>
        <g
           style="stroke:#eeeeee;stroke-opacity:1"
           transform="translate(0,30)"
           id="g1138-1-9-3">
          <rect
             y="104.72219"
             x="43.56493"
             height="10"
             width="10"
             id="rect1070-06-0-5"
             style="opacity:1;fill:none;fill-opacity:1;stroke:#eeeeee;stroke-width:0.40806979;stroke-miterlimit:4;stroke-dasharray:none;stroke-dashoffset:0;stroke-opacity:1" />
          <rect
             y="104.72219"
             x="53.56493"
             height="10"
             width="10"
             id="rect1070-1-3-8-7"
             style="opacity:1;fill:none;fill-opacity:1;stroke:#eeeeee;stroke-width:0.40806982;stroke-miterlimit:4;stroke-dasharray:none;stroke-dashoffset:0;stroke-opacity:1" />
          <rect
             y="104.72219"
             x="63.56493"
             height="10"
             width="10"
             id="rect1070-8-2-8-0"
             style="opacity:1;fill:none;fill-opacity:1;stroke:#eeeeee;stroke-width:0.40806982;stroke-miterlimit:4;stroke-dasharray:none;stroke-dashoffset:0;stroke-opacity:1" />
          <rect
             y="104.72219"
             x="73.564926"
             height="10"
             width="10"
             id="rect1070-7-0-5-8"
             style="opacity:1;fill:none;fill-opacity:1;stroke:#eeeeee;stroke-width:0.40806982;stroke-miterlimit:4;stroke-dasharray:none;stroke-dashoffset:0;stroke-opacity:1" />
          <rect
             y="104.72219"
             x="83.564926"
             height="10"
             width="10"
             id="rect1070-9-6-0-1"
             style="opacity:1;fill:none;fill-opacity:1;stroke:#eeeeee;stroke-width:0.40806982;stroke-miterlimit:4;stroke-dasharray:none;stroke-dashoffset:0;stroke-opacity:1" />
          <rect
             y="104.72219"
             x="93.564926"
             height="10"
             width="10"
             id="rect1070-2-1-9-9"
             style="opacity:1;fill:none;fill-opacity:1;stroke:#eeeeee;stroke-width:0.40806982;stroke-miterlimit:4;stroke-dasharray:none;stroke-dashoffset:0;stroke-opacity:1" />
          <rect
             y="104.72219"
             x="103.56493"
             height="10"
             width="10"
             id="rect1070-0-5-6-9"
             style="opacity:1;fill:none;fill-opacity:1;stroke:#eeeeee;stroke-width:0.40806982;stroke-miterlimit:4;stroke-dasharray:none;stroke-dashoffset:0;stroke-opacity:1" />
          <rect
             y="104.72219"
             x="113.56493"
             height="10"
             width="10"
             id="rect1070-23-5-3-7"
             style="opacity:1;fill:none;fill-opacity:1;stroke:#eeeeee;stroke-width:0.40806982;stroke-miterlimit:4;stroke-dasharray:none;stroke-dashoffset:0;stroke-opacity:1" />
          <rect
             y="104.72219"
             x="123.56493"
             height="10"
             width="10"
             id="rect1070-75-4-8-82"
             style="opacity:1;fill:none;fill-opacity:1;stroke:#eeeeee;stroke-width:0.40806982;stroke-miterlimit:4;stroke-dasharray:none;stroke-dashoffset:0;stroke-opacity:1" />
        </g>
        <g
           style="stroke:#eeeeee;stroke-opacity:1"
           transform="translate(0,40)"
           id="g1138-7-5-5">
          <rect
             y="104.72219"
             x="43.56493"
             height="10"
             width="10"
             id="rect1070-6-6-3"
             style="opacity:1;fill:none;fill-opacity:1;stroke:#eeeeee;stroke-width:0.40806979;stroke-miterlimit:4;stroke-dasharray:none;stroke-dashoffset:0;stroke-opacity:1" />
          <rect
             y="104.72219"
             x="53.56493"
             height="10"
             width="10"
             id="rect1070-1-5-1-4"
             style="opacity:1;fill:none;fill-opacity:1;stroke:#eeeeee;stroke-width:0.40806982;stroke-miterlimit:4;stroke-dasharray:none;stroke-dashoffset:0;stroke-opacity:1" />
          <rect
             y="104.72219"
             x="63.56493"
             height="10"
             width="10"
             id="rect1070-8-6-1-9"
             style="opacity:1;fill:none;fill-opacity:1;stroke:#eeeeee;stroke-width:0.40806982;stroke-miterlimit:4;stroke-dasharray:none;stroke-dashoffset:0;stroke-opacity:1" />
          <rect
             y="104.72219"
             x="73.564926"
             height="10"
             width="10"
             id="rect1070-7-9-5-0"
             style="opacity:1;fill:none;fill-opacity:1;stroke:#eeeeee;stroke-width:0.40806982;stroke-miterlimit:4;stroke-dasharray:none;stroke-dashoffset:0;stroke-opacity:1" />
          <rect
             y="104.72219"
             x="83.564926"
             height="10"
             width="10"
             id="rect1070-9-37-9-2"
             style="opacity:1;fill:none;fill-opacity:1;stroke:#eeeeee;stroke-width:0.40806982;stroke-miterlimit:4;stroke-dasharray:none;stroke-dashoffset:0;stroke-opacity:1" />
          <rect
             y="104.72219"
             x="93.564926"
             height="10"
             width="10"
             id="rect1070-2-4-8-01"
             style="opacity:1;fill:none;fill-opacity:1;stroke:#eeeeee;stroke-width:0.40806982;stroke-miterlimit:4;stroke-dasharray:none;stroke-dashoffset:0;stroke-opacity:1" />
          <rect
             y="104.72219"
             x="103.56493"
             height="10"
             width="10"
             id="rect1070-0-52-4-9"
             style="opacity:1;fill:none;fill-opacity:1;stroke:#eeeeee;stroke-width:0.40806982;stroke-miterlimit:4;stroke-dasharray:none;stroke-dashoffset:0;stroke-opacity:1" />
          <rect
             y="104.72219"
             x="113.56493"
             height="10"
             width="10"
             id="rect1070-23-54-8-6"
             style="opacity:1;fill:none;fill-opacity:1;stroke:#eeeeee;stroke-width:0.40806982;stroke-miterlimit:4;stroke-dasharray:none;stroke-dashoffset:0;stroke-opacity:1" />
          <rect
             y="104.72219"
             x="123.56493"
             height="10"
             width="10"
             id="rect1070-75-7-1-2"
             style="opacity:1;fill:none;fill-opacity:1;stroke:#eeeeee;stroke-width:0.40806982;stroke-miterlimit:4;stroke-dasharray:none;stroke-dashoffset:0;stroke-opacity:1" />
        </g>
        <g
           style="stroke:#eeeeee;stroke-opacity:1"
           transform="translate(0,50)"
           id="g1138-4-0-1">
          <rect
             y="104.72219"
             x="43.56493"
             height="10"
             width="10"
             id="rect1070-4-3-2"
             style="opacity:1;fill:none;fill-opacity:1;stroke:#eeeeee;stroke-width:0.40806979;stroke-miterlimit:4;stroke-dasharray:none;stroke-dashoffset:0;stroke-opacity:1" />
          <rect
             y="104.72219"
             x="53.56493"
             height="10"
             width="10"
             id="rect1070-1-30-0-07"
             style="opacity:1;fill:none;fill-opacity:1;stroke:#eeeeee;stroke-width:0.40806982;stroke-miterlimit:4;stroke-dasharray:none;stroke-dashoffset:0;stroke-opacity:1" />
          <rect
             y="104.72219"
             x="63.56493"
             height="10"
             width="10"
             id="rect1070-8-78-4-3"
             style="opacity:1;fill:none;fill-opacity:1;stroke:#eeeeee;stroke-width:0.40806982;stroke-miterlimit:4;stroke-dasharray:none;stroke-dashoffset:0;stroke-opacity:1" />
          <rect
             y="104.72219"
             x="73.564926"
             height="10"
             width="10"
             id="rect1070-7-6-4-1"
             style="opacity:1;fill:none;fill-opacity:1;stroke:#eeeeee;stroke-width:0.40806982;stroke-miterlimit:4;stroke-dasharray:none;stroke-dashoffset:0;stroke-opacity:1" />
          <rect
             y="104.72219"
             x="83.564926"
             height="10"
             width="10"
             id="rect1070-9-8-4-1"
             style="opacity:1;fill:none;fill-opacity:1;stroke:#eeeeee;stroke-width:0.40806982;stroke-miterlimit:4;stroke-dasharray:none;stroke-dashoffset:0;stroke-opacity:1" />
          <rect
             y="104.72219"
             x="93.564926"
             height="10"
             width="10"
             id="rect1070-2-8-4-90"
             style="opacity:1;fill:none;fill-opacity:1;stroke:#eeeeee;stroke-width:0.40806982;stroke-miterlimit:4;stroke-dasharray:none;stroke-dashoffset:0;stroke-opacity:1" />
          <rect
             y="104.72219"
             x="103.56493"
             height="10"
             width="10"
             id="rect1070-0-4-7-5"
             style="opacity:1;fill:none;fill-opacity:1;stroke:#eeeeee;stroke-width:0.40806982;stroke-miterlimit:4;stroke-dasharray:none;stroke-dashoffset:0;stroke-opacity:1" />
          <rect
             y="104.72219"
             x="113.56493"
             height="10"
             width="10"
             id="rect1070-23-31-6-6"
             style="opacity:1;fill:none;fill-opacity:1;stroke:#eeeeee;stroke-width:0.40806982;stroke-miterlimit:4;stroke-dasharray:none;stroke-dashoffset:0;stroke-opacity:1" />
          <rect
             y="104.72219"
             x="123.56493"
             height="10"
             width="10"
             id="rect1070-75-49-3-7"
             style="opacity:1;fill:none;fill-opacity:1;stroke:#eeeeee;stroke-width:0.40806982;stroke-miterlimit:4;stroke-dasharray:none;stroke-dashoffset:0;stroke-opacity:1" />
        </g>
        <g
           style="stroke:#eeeeee;stroke-opacity:1"
           transform="translate(0,60)"
           id="g1138-2-1-7">
          <rect
             y="104.72219"
             x="43.56493"
             height="10"
             width="10"
             id="rect1070-068-7-4"
             style="opacity:1;fill:none;fill-opacity:1;stroke:#eeeeee;stroke-width:0.40806979;stroke-miterlimit:4;stroke-dasharray:none;stroke-dashoffset:0;stroke-opacity:1" />
          <rect
             y="104.72219"
             x="53.56493"
             height="10"
             width="10"
             id="rect1070-1-9-5-0"
             style="opacity:1;fill:none;fill-opacity:1;stroke:#eeeeee;stroke-width:0.40806982;stroke-miterlimit:4;stroke-dasharray:none;stroke-dashoffset:0;stroke-opacity:1" />
          <rect
             y="104.72219"
             x="63.56493"
             height="10"
             width="10"
             id="rect1070-8-26-9-6"
             style="opacity:1;fill:none;fill-opacity:1;stroke:#eeeeee;stroke-width:0.40806982;stroke-miterlimit:4;stroke-dasharray:none;stroke-dashoffset:0;stroke-opacity:1" />
          <rect
             y="104.72219"
             x="73.564926"
             height="10"
             width="10"
             id="rect1070-7-64-6-4"
             style="opacity:1;fill:none;fill-opacity:1;stroke:#eeeeee;stroke-width:0.40806982;stroke-miterlimit:4;stroke-dasharray:none;stroke-dashoffset:0;stroke-opacity:1" />
          <rect
             y="104.72219"
             x="83.564926"
             height="10"
             width="10"
             id="rect1070-9-9-2-7"
             style="opacity:1;fill:none;fill-opacity:1;stroke:#eeeeee;stroke-width:0.40806982;stroke-miterlimit:4;stroke-dasharray:none;stroke-dashoffset:0;stroke-opacity:1" />
          <rect
             y="104.72219"
             x="93.564926"
             height="10"
             width="10"
             id="rect1070-2-50-1-4"
             style="opacity:1;fill:none;fill-opacity:1;stroke:#eeeeee;stroke-width:0.40806982;stroke-miterlimit:4;stroke-dasharray:none;stroke-dashoffset:0;stroke-opacity:1" />
          <rect
             y="104.72219"
             x="103.56493"
             height="10"
             width="10"
             id="rect1070-0-48-7-8"
             style="opacity:1;fill:none;fill-opacity:1;stroke:#eeeeee;stroke-width:0.40806982;stroke-miterlimit:4;stroke-dasharray:none;stroke-dashoffset:0;stroke-opacity:1" />
          <rect
             y="104.72219"
             x="113.56493"
             height="10"
             width="10"
             id="rect1070-23-7-8-58"
             style="opacity:1;fill:none;fill-opacity:1;stroke:#eeeeee;stroke-width:0.40806982;stroke-miterlimit:4;stroke-dasharray:none;stroke-dashoffset:0;stroke-opacity:1" />
          <rect
             y="104.72219"
             x="123.56493"
             height="10"
             width="10"
             id="rect1070-75-1-5-2"
             style="opacity:1;fill:none;fill-opacity:1;stroke:#eeeeee;stroke-width:0.40806982;stroke-miterlimit:4;stroke-dasharray:none;stroke-dashoffset:0;stroke-opacity:1" />
        </g>
      </g>
    </g>
    <g
       id="g2870"
       transform="translate(-22.696438,-2.497024)">
      <rect
         y="91.399384"
         x="129.45863"
         height="69.999786"
         width="90"
         id="rect815-6-5-7-2-6"
         style="opacity:1;fill:#bfbfbf;fill-opacity:1;stroke:none;stroke-width:0.45288986;stroke-miterlimit:4;stroke-dasharray:none;stroke-dashoffset:0;stroke-opacity:1" />
      <path
         id="rect815-6-0-7-0"
         d="m 165.89256,91.399171 c 0.50151,2.433793 1.16258,5.547094 2.09245,9.751519 2.51157,11.35618 7.02225,18.52308 13.21106,22.5594 4.75431,-4.13934 10.04478,-9.16042 14.26248,-17.33552 3.83023,-7.424067 7.10359,-12.065308 9.71489,-14.975399 z"
         style="opacity:1;fill:#1b1b1b;fill-opacity:1;stroke:none;stroke-width:0.45288983;stroke-miterlimit:4;stroke-dasharray:none;stroke-dashoffset:0;stroke-opacity:1"
         inkscape:connector-curvature="0" />
      <path
         id="rect815-9-2-66"
         d="m 205.17344,91.399176 c -2.6113,2.91009 -5.88466,7.551332 -9.71489,14.975404 -10.42105,20.19894 -27.45052,21.24202 -26.52654,36.91531 0.31183,5.28943 -3.39829,11.94888 -6.79939,18.1092 h 57.32589 V 91.399176 Z"
         style="opacity:1;fill:#000000;fill-opacity:1;stroke:none;stroke-width:0.45288986;stroke-miterlimit:4;stroke-dasharray:none;stroke-dashoffset:0;stroke-opacity:1"
         inkscape:connector-curvature="0" />
      <g
         style="stroke:#eeeeee;stroke-opacity:1"
         transform="translate(85.893696,-13.322916)"
         id="g1390-2-4">
        <g
           style="stroke:#eeeeee;stroke-opacity:1"
           id="g1138-6-6">
          <rect
             y="104.72219"
             x="43.56493"
             height="10"
             width="10"
             id="rect1070-10-2"
             style="opacity:1;fill:none;fill-opacity:1;stroke:#eeeeee;stroke-width:0.40806979;stroke-miterlimit:4;stroke-dasharray:none;stroke-dashoffset:0;stroke-opacity:1" />
          <rect
             y="104.72219"
             x="53.56493"
             height="10"
             width="10"
             id="rect1070-1-6-8"
             style="opacity:1;fill:none;fill-opacity:1;stroke:#eeeeee;stroke-width:0.40806982;stroke-miterlimit:4;stroke-dasharray:none;stroke-dashoffset:0;stroke-opacity:1" />
          <rect
             y="104.72219"
             x="63.56493"
             height="10"
             width="10"
             id="rect1070-8-1-9"
             style="opacity:1;fill:none;fill-opacity:1;stroke:#eeeeee;stroke-width:0.40806982;stroke-miterlimit:4;stroke-dasharray:none;stroke-dashoffset:0;stroke-opacity:1" />
          <rect
             y="104.72219"
             x="73.564926"
             height="10"
             width="10"
             id="rect1070-7-5-6"
             style="opacity:1;fill:none;fill-opacity:1;stroke:#eeeeee;stroke-width:0.40806982;stroke-miterlimit:4;stroke-dasharray:none;stroke-dashoffset:0;stroke-opacity:1" />
          <rect
             y="104.72219"
             x="83.564926"
             height="10"
             width="10"
             id="rect1070-9-94-07"
             style="opacity:1;fill:none;fill-opacity:1;stroke:#eeeeee;stroke-width:0.40806982;stroke-miterlimit:4;stroke-dasharray:none;stroke-dashoffset:0;stroke-opacity:1" />
          <rect
             y="104.72219"
             x="93.564926"
             height="10"
             width="10"
             id="rect1070-2-9-0"
             style="opacity:1;fill:none;fill-opacity:1;stroke:#eeeeee;stroke-width:0.40806982;stroke-miterlimit:4;stroke-dasharray:none;stroke-dashoffset:0;stroke-opacity:1" />
          <rect
             y="104.72219"
             x="103.56493"
             height="10"
             width="10"
             id="rect1070-0-09-1"
             style="opacity:1;fill:none;fill-opacity:1;stroke:#eeeeee;stroke-width:0.40806982;stroke-miterlimit:4;stroke-dasharray:none;stroke-dashoffset:0;stroke-opacity:1" />
          <rect
             y="104.72219"
             x="113.56493"
             height="10"
             width="10"
             id="rect1070-23-1-01"
             style="opacity:1;fill:none;fill-opacity:1;stroke:#eeeeee;stroke-width:0.40806982;stroke-miterlimit:4;stroke-dasharray:none;stroke-dashoffset:0;stroke-opacity:1" />
          <rect
             y="104.72219"
             x="123.56493"
             height="10"
             width="10"
             id="rect1070-75-77-3"
             style="opacity:1;fill:none;fill-opacity:1;stroke:#eeeeee;stroke-width:0.40806982;stroke-miterlimit:4;stroke-dasharray:none;stroke-dashoffset:0;stroke-opacity:1" />
        </g>
        <g
           style="stroke:#eeeeee;stroke-opacity:1"
           transform="translate(0,10)"
           id="g1138-9-1-7">
          <rect
             y="104.72219"
             x="43.56493"
             height="10"
             width="10"
             id="rect1070-22-1-7"
             style="opacity:1;fill:none;fill-opacity:1;stroke:#eeeeee;stroke-width:0.40806979;stroke-miterlimit:4;stroke-dasharray:none;stroke-dashoffset:0;stroke-opacity:1" />
          <rect
             y="104.72219"
             x="53.56493"
             height="10"
             width="10"
             id="rect1070-1-8-5-2"
             style="opacity:1;fill:none;fill-opacity:1;stroke:#eeeeee;stroke-width:0.40806982;stroke-miterlimit:4;stroke-dasharray:none;stroke-dashoffset:0;stroke-opacity:1" />
          <rect
             y="104.72219"
             x="63.56493"
             height="10"
             width="10"
             id="rect1070-8-9-9-6"
             style="opacity:1;fill:none;fill-opacity:1;stroke:#eeeeee;stroke-width:0.40806982;stroke-miterlimit:4;stroke-dasharray:none;stroke-dashoffset:0;stroke-opacity:1" />
          <rect
             y="104.72219"
             x="73.564926"
             height="10"
             width="10"
             id="rect1070-7-7-7-4"
             style="opacity:1;fill:none;fill-opacity:1;stroke:#eeeeee;stroke-width:0.40806982;stroke-miterlimit:4;stroke-dasharray:none;stroke-dashoffset:0;stroke-opacity:1" />
          <rect
             y="104.72219"
             x="83.564926"
             height="10"
             width="10"
             id="rect1070-9-3-7-52"
             style="opacity:1;fill:none;fill-opacity:1;stroke:#eeeeee;stroke-width:0.40806982;stroke-miterlimit:4;stroke-dasharray:none;stroke-dashoffset:0;stroke-opacity:1" />
          <rect
             y="104.72219"
             x="93.564926"
             height="10"
             width="10"
             id="rect1070-2-6-6-0"
             style="opacity:1;fill:none;fill-opacity:1;stroke:#eeeeee;stroke-width:0.40806982;stroke-miterlimit:4;stroke-dasharray:none;stroke-dashoffset:0;stroke-opacity:1" />
          <rect
             y="104.72219"
             x="103.56493"
             height="10"
             width="10"
             id="rect1070-0-1-7-2"
             style="opacity:1;fill:none;fill-opacity:1;stroke:#eeeeee;stroke-width:0.40806982;stroke-miterlimit:4;stroke-dasharray:none;stroke-dashoffset:0;stroke-opacity:1" />
          <rect
             y="104.72219"
             x="113.56493"
             height="10"
             width="10"
             id="rect1070-23-2-3-90"
             style="opacity:1;fill:none;fill-opacity:1;stroke:#eeeeee;stroke-width:0.40806982;stroke-miterlimit:4;stroke-dasharray:none;stroke-dashoffset:0;stroke-opacity:1" />
          <rect
             y="104.72219"
             x="123.56493"
             height="10"
             width="10"
             id="rect1070-75-9-6-9"
             style="opacity:1;fill:none;fill-opacity:1;stroke:#eeeeee;stroke-width:0.40806982;stroke-miterlimit:4;stroke-dasharray:none;stroke-dashoffset:0;stroke-opacity:1" />
        </g>
        <g
           style="stroke:#eeeeee;stroke-opacity:1"
           transform="translate(0,20)"
           id="g1138-3-5-9">
          <rect
             y="104.72219"
             x="43.56493"
             height="10"
             width="10"
             id="rect1070-19-6-45"
             style="opacity:1;fill:none;fill-opacity:1;stroke:#eeeeee;stroke-width:0.40806979;stroke-miterlimit:4;stroke-dasharray:none;stroke-dashoffset:0;stroke-opacity:1" />
          <rect
             y="104.72219"
             x="53.56493"
             height="10"
             width="10"
             id="rect1070-1-4-3-1"
             style="opacity:1;fill:none;fill-opacity:1;stroke:#eeeeee;stroke-width:0.40806982;stroke-miterlimit:4;stroke-dasharray:none;stroke-dashoffset:0;stroke-opacity:1" />
          <rect
             y="104.72219"
             x="63.56493"
             height="10"
             width="10"
             id="rect1070-8-7-9-0"
             style="opacity:1;fill:none;fill-opacity:1;stroke:#eeeeee;stroke-width:0.40806982;stroke-miterlimit:4;stroke-dasharray:none;stroke-dashoffset:0;stroke-opacity:1" />
          <rect
             y="104.72219"
             x="73.564926"
             height="10"
             width="10"
             id="rect1070-7-8-4-3"
             style="opacity:1;fill:none;fill-opacity:1;stroke:#eeeeee;stroke-width:0.40806982;stroke-miterlimit:4;stroke-dasharray:none;stroke-dashoffset:0;stroke-opacity:1" />
          <rect
             y="104.72219"
             x="83.564926"
             height="10"
             width="10"
             id="rect1070-9-4-8-7"
             style="opacity:1;fill:none;fill-opacity:1;stroke:#eeeeee;stroke-width:0.40806982;stroke-miterlimit:4;stroke-dasharray:none;stroke-dashoffset:0;stroke-opacity:1" />
          <rect
             y="104.72219"
             x="93.564926"
             height="10"
             width="10"
             id="rect1070-2-5-1-8"
             style="opacity:1;fill:none;fill-opacity:1;stroke:#eeeeee;stroke-width:0.40806982;stroke-miterlimit:4;stroke-dasharray:none;stroke-dashoffset:0;stroke-opacity:1" />
          <rect
             y="104.72219"
             x="103.56493"
             height="10"
             width="10"
             id="rect1070-0-0-2-8"
             style="opacity:1;fill:none;fill-opacity:1;stroke:#eeeeee;stroke-width:0.40806982;stroke-miterlimit:4;stroke-dasharray:none;stroke-dashoffset:0;stroke-opacity:1" />
          <rect
             y="104.72219"
             x="113.56493"
             height="10"
             width="10"
             id="rect1070-23-3-9-6"
             style="opacity:1;fill:none;fill-opacity:1;stroke:#eeeeee;stroke-width:0.40806982;stroke-miterlimit:4;stroke-dasharray:none;stroke-dashoffset:0;stroke-opacity:1" />
          <rect
             y="104.72219"
             x="123.56493"
             height="10"
             width="10"
             id="rect1070-75-6-3-0"
             style="opacity:1;fill:none;fill-opacity:1;stroke:#eeeeee;stroke-width:0.40806982;stroke-miterlimit:4;stroke-dasharray:none;stroke-dashoffset:0;stroke-opacity:1" />
        </g>
        <g
           style="stroke:#eeeeee;stroke-opacity:1"
           transform="translate(0,30)"
           id="g1138-1-9-4">
          <rect
             y="104.72219"
             x="43.56493"
             height="10"
             width="10"
             id="rect1070-06-0-6"
             style="opacity:1;fill:none;fill-opacity:1;stroke:#eeeeee;stroke-width:0.40806979;stroke-miterlimit:4;stroke-dasharray:none;stroke-dashoffset:0;stroke-opacity:1" />
          <rect
             y="104.72219"
             x="53.56493"
             height="10"
             width="10"
             id="rect1070-1-3-8-76"
             style="opacity:1;fill:none;fill-opacity:1;stroke:#eeeeee;stroke-width:0.40806982;stroke-miterlimit:4;stroke-dasharray:none;stroke-dashoffset:0;stroke-opacity:1" />
          <rect
             y="104.72219"
             x="63.56493"
             height="10"
             width="10"
             id="rect1070-8-2-8-09"
             style="opacity:1;fill:none;fill-opacity:1;stroke:#eeeeee;stroke-width:0.40806982;stroke-miterlimit:4;stroke-dasharray:none;stroke-dashoffset:0;stroke-opacity:1" />
          <rect
             y="104.72219"
             x="73.564926"
             height="10"
             width="10"
             id="rect1070-7-0-5-7"
             style="opacity:1;fill:none;fill-opacity:1;stroke:#eeeeee;stroke-width:0.40806982;stroke-miterlimit:4;stroke-dasharray:none;stroke-dashoffset:0;stroke-opacity:1" />
          <rect
             y="104.72219"
             x="83.564926"
             height="10"
             width="10"
             id="rect1070-9-6-0-5"
             style="opacity:1;fill:none;fill-opacity:1;stroke:#eeeeee;stroke-width:0.40806982;stroke-miterlimit:4;stroke-dasharray:none;stroke-dashoffset:0;stroke-opacity:1" />
          <rect
             y="104.72219"
             x="93.564926"
             height="10"
             width="10"
             id="rect1070-2-1-9-97"
             style="opacity:1;fill:none;fill-opacity:1;stroke:#eeeeee;stroke-width:0.40806982;stroke-miterlimit:4;stroke-dasharray:none;stroke-dashoffset:0;stroke-opacity:1" />
          <rect
             y="104.72219"
             x="103.56493"
             height="10"
             width="10"
             id="rect1070-0-5-6-85"
             style="opacity:1;fill:none;fill-opacity:1;stroke:#eeeeee;stroke-width:0.40806982;stroke-miterlimit:4;stroke-dasharray:none;stroke-dashoffset:0;stroke-opacity:1" />
          <rect
             y="104.72219"
             x="113.56493"
             height="10"
             width="10"
             id="rect1070-23-5-3-3"
             style="opacity:1;fill:none;fill-opacity:1;stroke:#eeeeee;stroke-width:0.40806982;stroke-miterlimit:4;stroke-dasharray:none;stroke-dashoffset:0;stroke-opacity:1" />
          <rect
             y="104.72219"
             x="123.56493"
             height="10"
             width="10"
             id="rect1070-75-4-8-3"
             style="opacity:1;fill:none;fill-opacity:1;stroke:#eeeeee;stroke-width:0.40806982;stroke-miterlimit:4;stroke-dasharray:none;stroke-dashoffset:0;stroke-opacity:1" />
        </g>
        <g
           style="stroke:#eeeeee;stroke-opacity:1"
           transform="translate(0,40)"
           id="g1138-7-5-8">
          <rect
             y="104.72219"
             x="43.56493"
             height="10"
             width="10"
             id="rect1070-6-6-37"
             style="opacity:1;fill:none;fill-opacity:1;stroke:#eeeeee;stroke-width:0.40806979;stroke-miterlimit:4;stroke-dasharray:none;stroke-dashoffset:0;stroke-opacity:1" />
          <rect
             y="104.72219"
             x="53.56493"
             height="10"
             width="10"
             id="rect1070-1-5-1-9"
             style="opacity:1;fill:none;fill-opacity:1;stroke:#eeeeee;stroke-width:0.40806982;stroke-miterlimit:4;stroke-dasharray:none;stroke-dashoffset:0;stroke-opacity:1" />
          <rect
             y="104.72219"
             x="63.56493"
             height="10"
             width="10"
             id="rect1070-8-6-1-37"
             style="opacity:1;fill:none;fill-opacity:1;stroke:#eeeeee;stroke-width:0.40806982;stroke-miterlimit:4;stroke-dasharray:none;stroke-dashoffset:0;stroke-opacity:1" />
          <rect
             y="104.72219"
             x="73.564926"
             height="10"
             width="10"
             id="rect1070-7-9-5-8"
             style="opacity:1;fill:none;fill-opacity:1;stroke:#eeeeee;stroke-width:0.40806982;stroke-miterlimit:4;stroke-dasharray:none;stroke-dashoffset:0;stroke-opacity:1" />
          <rect
             y="104.72219"
             x="83.564926"
             height="10"
             width="10"
             id="rect1070-9-37-9-7"
             style="opacity:1;fill:none;fill-opacity:1;stroke:#eeeeee;stroke-width:0.40806982;stroke-miterlimit:4;stroke-dasharray:none;stroke-dashoffset:0;stroke-opacity:1" />
          <rect
             y="104.72219"
             x="93.564926"
             height="10"
             width="10"
             id="rect1070-2-4-8-4"
             style="opacity:1;fill:none;fill-opacity:1;stroke:#eeeeee;stroke-width:0.40806982;stroke-miterlimit:4;stroke-dasharray:none;stroke-dashoffset:0;stroke-opacity:1" />
          <rect
             y="104.72219"
             x="103.56493"
             height="10"
             width="10"
             id="rect1070-0-52-4-1"
             style="opacity:1;fill:none;fill-opacity:1;stroke:#eeeeee;stroke-width:0.40806982;stroke-miterlimit:4;stroke-dasharray:none;stroke-dashoffset:0;stroke-opacity:1" />
          <rect
             y="104.72219"
             x="113.56493"
             height="10"
             width="10"
             id="rect1070-23-54-8-9"
             style="opacity:1;fill:none;fill-opacity:1;stroke:#eeeeee;stroke-width:0.40806982;stroke-miterlimit:4;stroke-dasharray:none;stroke-dashoffset:0;stroke-opacity:1" />
          <rect
             y="104.72219"
             x="123.56493"
             height="10"
             width="10"
             id="rect1070-75-7-1-0"
             style="opacity:1;fill:none;fill-opacity:1;stroke:#eeeeee;stroke-width:0.40806982;stroke-miterlimit:4;stroke-dasharray:none;stroke-dashoffset:0;stroke-opacity:1" />
        </g>
        <g
           style="stroke:#eeeeee;stroke-opacity:1"
           transform="translate(0,50)"
           id="g1138-4-0-9">
          <rect
             y="104.72219"
             x="43.56493"
             height="10"
             width="10"
             id="rect1070-4-3-8"
             style="opacity:1;fill:none;fill-opacity:1;stroke:#eeeeee;stroke-width:0.40806979;stroke-miterlimit:4;stroke-dasharray:none;stroke-dashoffset:0;stroke-opacity:1" />
          <rect
             y="104.72219"
             x="53.56493"
             height="10"
             width="10"
             id="rect1070-1-30-0-8"
             style="opacity:1;fill:none;fill-opacity:1;stroke:#eeeeee;stroke-width:0.40806982;stroke-miterlimit:4;stroke-dasharray:none;stroke-dashoffset:0;stroke-opacity:1" />
          <rect
             y="104.72219"
             x="63.56493"
             height="10"
             width="10"
             id="rect1070-8-78-4-5"
             style="opacity:1;fill:none;fill-opacity:1;stroke:#eeeeee;stroke-width:0.40806982;stroke-miterlimit:4;stroke-dasharray:none;stroke-dashoffset:0;stroke-opacity:1" />
          <rect
             y="104.72219"
             x="73.564926"
             height="10"
             width="10"
             id="rect1070-7-6-4-84"
             style="opacity:1;fill:none;fill-opacity:1;stroke:#eeeeee;stroke-width:0.40806982;stroke-miterlimit:4;stroke-dasharray:none;stroke-dashoffset:0;stroke-opacity:1" />
          <rect
             y="104.72219"
             x="83.564926"
             height="10"
             width="10"
             id="rect1070-9-8-4-3"
             style="opacity:1;fill:none;fill-opacity:1;stroke:#eeeeee;stroke-width:0.40806982;stroke-miterlimit:4;stroke-dasharray:none;stroke-dashoffset:0;stroke-opacity:1" />
          <rect
             y="104.72219"
             x="93.564926"
             height="10"
             width="10"
             id="rect1070-2-8-4-7"
             style="opacity:1;fill:none;fill-opacity:1;stroke:#eeeeee;stroke-width:0.40806982;stroke-miterlimit:4;stroke-dasharray:none;stroke-dashoffset:0;stroke-opacity:1" />
          <rect
             y="104.72219"
             x="103.56493"
             height="10"
             width="10"
             id="rect1070-0-4-7-1"
             style="opacity:1;fill:none;fill-opacity:1;stroke:#eeeeee;stroke-width:0.40806982;stroke-miterlimit:4;stroke-dasharray:none;stroke-dashoffset:0;stroke-opacity:1" />
          <rect
             y="104.72219"
             x="113.56493"
             height="10"
             width="10"
             id="rect1070-23-31-6-38"
             style="opacity:1;fill:none;fill-opacity:1;stroke:#eeeeee;stroke-width:0.40806982;stroke-miterlimit:4;stroke-dasharray:none;stroke-dashoffset:0;stroke-opacity:1" />
          <rect
             y="104.72219"
             x="123.56493"
             height="10"
             width="10"
             id="rect1070-75-49-3-0"
             style="opacity:1;fill:none;fill-opacity:1;stroke:#eeeeee;stroke-width:0.40806982;stroke-miterlimit:4;stroke-dasharray:none;stroke-dashoffset:0;stroke-opacity:1" />
        </g>
        <g
           style="stroke:#eeeeee;stroke-opacity:1"
           transform="translate(0,60)"
           id="g1138-2-1-9">
          <rect
             y="104.72219"
             x="43.56493"
             height="10"
             width="10"
             id="rect1070-068-7-79"
             style="opacity:1;fill:none;fill-opacity:1;stroke:#eeeeee;stroke-width:0.40806979;stroke-miterlimit:4;stroke-dasharray:none;stroke-dashoffset:0;stroke-opacity:1" />
          <rect
             y="104.72219"
             x="53.56493"
             height="10"
             width="10"
             id="rect1070-1-9-5-9"
             style="opacity:1;fill:none;fill-opacity:1;stroke:#eeeeee;stroke-width:0.40806982;stroke-miterlimit:4;stroke-dasharray:none;stroke-dashoffset:0;stroke-opacity:1" />
          <rect
             y="104.72219"
             x="63.56493"
             height="10"
             width="10"
             id="rect1070-8-26-9-3"
             style="opacity:1;fill:none;fill-opacity:1;stroke:#eeeeee;stroke-width:0.40806982;stroke-miterlimit:4;stroke-dasharray:none;stroke-dashoffset:0;stroke-opacity:1" />
          <rect
             y="104.72219"
             x="73.564926"
             height="10"
             width="10"
             id="rect1070-7-64-6-2"
             style="opacity:1;fill:none;fill-opacity:1;stroke:#eeeeee;stroke-width:0.40806982;stroke-miterlimit:4;stroke-dasharray:none;stroke-dashoffset:0;stroke-opacity:1" />
          <rect
             y="104.72219"
             x="83.564926"
             height="10"
             width="10"
             id="rect1070-9-9-2-4"
             style="opacity:1;fill:none;fill-opacity:1;stroke:#eeeeee;stroke-width:0.40806982;stroke-miterlimit:4;stroke-dasharray:none;stroke-dashoffset:0;stroke-opacity:1" />
          <rect
             y="104.72219"
             x="93.564926"
             height="10"
             width="10"
             id="rect1070-2-50-1-3"
             style="opacity:1;fill:none;fill-opacity:1;stroke:#eeeeee;stroke-width:0.40806982;stroke-miterlimit:4;stroke-dasharray:none;stroke-dashoffset:0;stroke-opacity:1" />
          <rect
             y="104.72219"
             x="103.56493"
             height="10"
             width="10"
             id="rect1070-0-48-7-7"
             style="opacity:1;fill:none;fill-opacity:1;stroke:#eeeeee;stroke-width:0.40806982;stroke-miterlimit:4;stroke-dasharray:none;stroke-dashoffset:0;stroke-opacity:1" />
          <rect
             y="104.72219"
             x="113.56493"
             height="10"
             width="10"
             id="rect1070-23-7-8-1"
             style="opacity:1;fill:none;fill-opacity:1;stroke:#eeeeee;stroke-width:0.40806982;stroke-miterlimit:4;stroke-dasharray:none;stroke-dashoffset:0;stroke-opacity:1" />
          <rect
             y="104.72219"
             x="123.56493"
             height="10"
             width="10"
             id="rect1070-75-1-5-22"
             style="opacity:1;fill:none;fill-opacity:1;stroke:#eeeeee;stroke-width:0.40806982;stroke-miterlimit:4;stroke-dasharray:none;stroke-dashoffset:0;stroke-opacity:1" />
        </g>
      </g>
    </g>
    <text
       xml:space="preserve"
       style="font-style:normal;font-weight:normal;font-size:10.58333302px;line-height:1.25;font-family:sans-serif;letter-spacing:0px;word-spacing:0px;fill:#000000;fill-opacity:1;stroke:none;stroke-width:0.26458332"
       x="26.062326"
       y="6.4323912"
       id="text2950"><tspan
         sodipodi:role="line"
         id="tspan2948"
         x="26.062326"
         y="6.4323912"
         style="font-style:normal;font-variant:normal;font-weight:bold;font-stretch:normal;font-size:4.23333311px;font-family:sans-serif;-inkscape-font-specification:'sans-serif Bold';stroke-width:0.26458332">Bande spectrale <tspan
   style="fill:#0000ff;fill-opacity:1"
   id="tspan2972">Bleue</tspan></tspan></text>
    <text
       xml:space="preserve"
       style="font-style:normal;font-weight:normal;font-size:10.58333302px;line-height:1.25;font-family:sans-serif;letter-spacing:0px;word-spacing:0px;fill:#000000;fill-opacity:1;stroke:none;stroke-width:0.26458332"
       x="125.13746"
       y="6.4323912"
       id="text2950-0"><tspan
         sodipodi:role="line"
         id="tspan2948-2"
         x="125.13746"
         y="6.4323912"
         style="font-style:normal;font-variant:normal;font-weight:bold;font-stretch:normal;font-size:4.23333311px;font-family:sans-serif;-inkscape-font-specification:'sans-serif Bold';stroke-width:0.26458332">Bande spectrale <tspan
   style="fill:#00ff00;fill-opacity:1"
   id="tspan2974">Verte</tspan></tspan></text>
    <text
       xml:space="preserve"
       style="font-style:normal;font-weight:normal;font-size:10.58333302px;line-height:1.25;font-family:sans-serif;letter-spacing:0px;word-spacing:0px;fill:#000000;fill-opacity:1;stroke:none;stroke-width:0.26458332"
       x="25.23757"
       y="86.810432"
       id="text2950-0-1"><tspan
         sodipodi:role="line"
         id="tspan2948-2-7"
         x="25.23757"
         y="86.810432"
         style="font-style:normal;font-variant:normal;font-weight:bold;font-stretch:normal;font-size:4.23333311px;font-family:sans-serif;-inkscape-font-specification:'sans-serif Bold';stroke-width:0.26458332">Bande spectrale <tspan
   style="fill:#ff0000;fill-opacity:1"
   id="tspan3026">Rouge</tspan></tspan></text>
    <text
       xml:space="preserve"
       style="font-style:normal;font-weight:normal;font-size:10.58333302px;line-height:1.25;font-family:sans-serif;letter-spacing:0px;word-spacing:0px;fill:#000000;fill-opacity:1;stroke:none;stroke-width:0.26458332"
       x="109.96009"
       y="86.810432"
       id="text2950-0-1-1"><tspan
         sodipodi:role="line"
         id="tspan2948-2-7-7"
         x="109.96009"
         y="86.810432"
         style="font-style:normal;font-variant:normal;font-weight:bold;font-stretch:normal;font-size:4.23333311px;font-family:sans-serif;-inkscape-font-specification:'sans-serif Bold';fill:#8d0081;fill-opacity:1;stroke-width:0.26458332"><tspan
   style="fill:#000000;fill-opacity:1"
   id="tspan3020">Bande spectrale </tspan>Proche Infrarouge</tspan></text>
  </g>
</svg>
